ASVS 3.0.1;1.1;Verify that all application components are identified and are known to be needed.;CM-8;CUSTOM WEB APP
ASVS 3.0.1;1.2;Verify that all components, such as libraries, modules, and external systems, that are not part of the application but that the application relies on to operate are identified.;CM-8;CUSTOM WEB APP
ASVS 3.0.1;1.3;Verify that a high-level architecture for the application has been defined.;CM-8;CUSTOM WEB APP
ASVS 3.0.1;1.4;Verify that all application components are defined in terms of the business functions and/or security functions they provide.;CM-8;CUSTOM WEB APP
ASVS 3.0.1;1.5;Verify that all components that are not part of the application but that the application relies on to operate are defined in terms of the functions, and/or security functions, they provide.;CM-8;CUSTOM WEB APP
ASVS 3.0.1;1.6;Verify that a threat model for the target application has been produced and covers off risks associated with Spoofing, Tampering, Repudiation, Information Disclosure, and Elevation of privilege (STRIDE).;RA-3;CUSTOM WEB APP
ASVS 3.0.1;1.7;Verify all security controls (including libraries that call external security services) have a centralized implementation.;PL-9;CUSTOM WEB APP
ASVS 3.0.1;1.8;Verify that components are segregated from each other via a defined security control, such as network segmentation, firewall rules, or cloud based security groups.;SC-7,SC-7(21);CUSTOM WEB APP
ASVS 3.0.1;1.9;Verify the application has a clear separation between the data layer, controller layer and the display layer, such that security decisions can be enforced on trusted systems.;SC-2;CUSTOM WEB APP
ASVS 3.0.1;1.10;Verify that there is no sensitive business logic, secret keys or other proprietary information in client side code.;SC-1;CUSTOM WEB APP
ASVS 3.0.1;1.11;Verify that all application components, libraries, modules, frameworks, platform, and operating systems are free from known vulnerabilities.;RA-3,RA-5;CUSTOM WEB APP
ASVS 3.0.1;2.1;Verify all pages and resources by default require authentication except those specifically intended to be public (Principle of complete mediation).;IA-1;CUSTOM WEB APP
ASVS 3.0.1;2.2;Verify that forms containing credentials are not filled in by the application. Pre-filling by the application implies that credentials are stored in plaintext or a reversible format, which is explicitly prohibited. ;IA-5;CUSTOM WEB APP
ASVS 3.0.1;2.4;Verify all authentication controls are enforced on the server side.;IA-1,SC-24;CUSTOM WEB APP
ASVS 3.0.1;2.6;Verify all authentication controls fail securely to ensure attackers cannot log in.;IA-1;CUSTOM WEB APP
ASVS 3.0.1;2.7;Verify password entry fields allow, or encourage, the use of passphrases, and do not prevent password managers, long passphrases or highly complex passwords being entered.;IA-5(1),IA-5(4);CUSTOM WEB APP
ASVS 3.0.1;2.8;Verify all account identity authentication functions (such as update profile, forgot password, disabled / lost token, help desk or IVR) that might regain access to the account are at least as resistant to attack as the primary authentication mechanism.;IA-5;CUSTOM WEB APP
ASVS 3.0.1;2.9;Verify that the changing password functionality includes the old password, the new password, and a password confirmation.;IA-5;CUSTOM WEB APP
ASVS 3.0.1;2.12;Verify that all authentication decisions can be logged, without storing sensitive session identifiers or passwords. This should include requests with relevant metadata needed for security investigations.;IA-10;CUSTOM WEB APP
ASVS 3.0.1;2.13;Verify that account passwords are one way hashed with a salt, and there is sufficient work factor to defeat brute force and password hash recovery attacks. ;IA-7;CUSTOM WEB APP
ASVS 3.0.1;2.16;Verify that credentials are transported using a suitable encrypted link and that all pages/functions that require a user to enter credentials are done so using an encrypted link.;IA-5(7),IA-7;CUSTOM WEB APP
ASVS 3.0.1;2.17;Verify that the forgotten password function and other recovery paths do not reveal the current password and that the new password is not sent in clear text to the user.;IA-5;CUSTOM WEB APP
ASVS 3.0.1;2.18;Verify that information enumeration is not possible via login, password reset, or forgot account functionality.;IA-5;CUSTOM WEB APP
ASVS 3.0.1;2.19;Verify there are no default passwords in use for the application framework or any components used by the application (such as ñadmin/passwordî).;IA-5(5);CUSTOM WEB APP
ASVS 3.0.1;2.20;Verify that anti-automation is in place to prevent breached credential testing, brute forcing, and account lockout attacks.;IA-1,IA-9;CUSTOM WEB APP
ASVS 3.0.1;2.21;Verify that all authentication credentials for accessing services external to the application are encrypted and stored in a protected location.;IA-5(7);CUSTOM WEB APP
ASVS 3.0.1;2.22;Verify that forgotten password and other recovery paths use a TOTP or other soft token, mobile push, or other offline recovery mechanism. Use of a random value in an e-mail or SMS should be a last resort and is known weak.;IA-5(6);CUSTOM WEB APP
ASVS 3.0.1;2.23;Verify that account lockout is divided into soft and hard lock status, and these are not mutually exclusive. If an account is temporarily soft locked out due to a brute force attack, this should not reset the hard lock status.;IA-10;CUSTOM WEB APP
ASVS 3.0.1;2.24;"Verify that if shared knowledge based questions (also known as ""secret questions"") are required, the questions do not violate privacy laws and are sufficiently strong to protect accounts from malicious recovery. ";IA-5;CUSTOM WEB APP
ASVS 3.0.1;2.25;Verify that the system can be configured to disallow the use of a configurable number of previous passwords.;IA-5(1);CUSTOM WEB APP
ASVS 3.0.1;2.26;Verify that risk based re-authentication, two factor or transaction signing is in place for high value transactions. ;IA-11;CUSTOM WEB APP
ASVS 3.0.1;2.27;Verify that measures are in place to block the use of commonly chosen passwords and weak passphrases.;IA-5(4);CUSTOM WEB APP
ASVS 3.0.1;2.28;Verify that all authentication challenges, whether successful or failed, should respond in the same average response time.;IA-1,IA-9;CUSTOM WEB APP
ASVS 3.0.1;2.29;Verify that secrets, API keys, and passwords are not included in the source code, or online source code repositories.;IA-1;CUSTOM WEB APP
ASVS 3.0.1;2.31;Verify that if an application allows users to authenticate, they can authenticate using two-factor authentication or other strong authentication, or any similar scheme that provides protection against username + password disclosure.;IA-5(4),IA-5(7);CUSTOM WEB APP
ASVS 3.0.1;2.32;Verify that administrative interfaces are not accessible to untrusted parties.;SC-2;CUSTOM WEB APP
ASVS 3.0.1;2.33;Browser autocomplete, and integration with password managers are permitted unless prohibited by risk based policy.;IA-5;CUSTOM WEB APP
ASVS 3.0.1;3.1;Verify that there is no custom session manager, or that the custom session manager is resistant against all common session management attacks.;AC-10,AC-11,AC-12,SC-23;CUSTOM WEB APP
ASVS 3.0.1;3.2;Verify that sessions are invalidated when the user logs out.;SC-23(1);CUSTOM WEB APP
ASVS 3.0.1;3.3;Verify that sessions timeout after a specified period of inactivity.;AC-11,AC-12;CUSTOM WEB APP
ASVS 3.0.1;3.4;Verify that sessions timeout after an administratively-configurable maximum time period regardless of activity (an absolute timeout).;AC-12;CUSTOM WEB APP
ASVS 3.0.1;3.5;Verify that all pages that require authentication have easy and visible access to logout functionality.;AC-12(1);CUSTOM WEB APP
ASVS 3.0.1;3.6;Verify that the session id is never disclosed in URLs, error messages, or logs. This includes verifying that the application does not support URL rewriting of session cookies.;SC-23;CUSTOM WEB APP
ASVS 3.0.1;3.7;Verify that all successful authentication and re-authentication generates a new session and session id.;SC-23(3);CUSTOM WEB APP
ASVS 3.0.1;3.10;Verify that only session ids generated by the application framework are recognized as active by the application.;SC-23;CUSTOM WEB APP
ASVS 3.0.1;3.11;Verify that session ids are sufficiently long, random and unique across the correct active session base.;SC-23,SC-23(1);CUSTOM WEB APP
ASVS 3.0.1;3.12;Verify that session ids stored in cookies have their path set to an appropriately restrictive value for the application, and authentication session tokens additionally set the ñHttpOnlyî and ñsecureî attributes;SC-23;CUSTOM WEB APP
ASVS 3.0.1;3.16;Verify that the application limits the number of active concurrent sessions.;AC-10;CUSTOM WEB APP
ASVS 3.0.1;3.17;Verify that an active session list is displayed in the account profile or similar of each user. The user should be able to terminate any active session.;AC-9(4),AC-12;CUSTOM WEB APP
ASVS 3.0.1;3.18;Verify the user is prompted with the option to terminate all other active sessions after a successful change password process.;SC-23,AC-12(1);CUSTOM WEB APP
ASVS 3.0.1;4.1;Verify that the principle of least privilege exists - users should only be able to access functions, data files, URLs, controllers, services, and other resources, for which they possess specific authorization. This implies protection against spoofing and elevation of privilege.;AC-6;CUSTOM WEB APP
ASVS 3.0.1;4.4;Verify that access to sensitive records is protected, such that only authorized objects or data is accessible to each user (for example, protect against users tampering with a parameter to see or alter another user's account).;AC-2;CUSTOM WEB APP
ASVS 3.0.1;4.5;Verify that directory browsing is disabled unless deliberately desired. Additionally, applications should not allow discovery or disclosure of file or directory metadata, such as Thumbs.db, .DS_Store, .git or .svn folders.;AC-1;CUSTOM WEB APP
ASVS 3.0.1;4.8;Verify that access controls fail securely.;SC-24,AC-1;CUSTOM WEB APP
ASVS 3.0.1;4.9;Verify that the same access control rules implied by the presentation layer are enforced on the server side.;AC-1;CUSTOM WEB APP
ASVS 3.0.1;4.10;Verify that all user and data attributes and policy information used by access controls cannot be manipulated by end users unless specifically authorized.;AC-6(10);CUSTOM WEB APP
ASVS 3.0.1;4.11;Verify that there is a centralized mechanism (including libraries that call external authorization services) for protecting access to each type of protected resource.;AC-17;CUSTOM WEB APP
ASVS 3.0.1;4.12;Verify that all access control decisions can be logged and all failed decisions are logged.;AC-9,AC-2(12);CUSTOM WEB APP
ASVS 3.0.1;4.13;Verify that the application or framework uses strong random anti-CSRF tokens or has another transaction protection mechanism.;SC-23;CUSTOM WEB APP
ASVS 3.0.1;4.14;Verify the system can protect against aggregate or continuous access of secured functions, resources, or data. For example, consider the use of a resource governor to limit the number of edits per hour or to prevent the entire database from being scraped by an individual user.;AC-6,AC-7;CUSTOM WEB APP
ASVS 3.0.1;4.15;Verify the application has additional authorization (such as step up or adaptive authentication) for lower value systems, and / or segregation of duties for high value applications to enforce anti-fraud controls as per the risk of application and past fraud.;AC-5,AC-6;CUSTOM WEB APP
ASVS 3.0.1;4.16;Verify that the application correctly enforces context-sensitive authorisation so as to not allow unauthorised manipulation by means of parameter tampering.;AC-3;CUSTOM WEB APP
ASVS 3.0.1;5.1;Verify that the runtime environment is not susceptible to buffer overflows, or that security controls prevent buffer overflows.;SI-10;CUSTOM WEB APP
ASVS 3.0.1;5.3;Verify that server side input validation failures result in request rejection and are logged.;SI-10;CUSTOM WEB APP
ASVS 3.0.1;5.5;Verify that input validation routines are enforced on the server side.;SI-10;CUSTOM WEB APP
ASVS 3.0.1;5.6;Verify that a single input validation control is used by the application for each type of data that is accepted.;SI-10;CUSTOM WEB APP
ASVS 3.0.1;5.10;Verify that all SQL queries, HQL, OSQL, NOSQL and stored procedures, calling of stored procedures are protected by the use of prepared statements or query parameterization, and thus not susceptible to SQL injection;SI-10;CUSTOM WEB APP
ASVS 3.0.1;5.11;Verify that the application is not susceptible to LDAP Injection, or that security controls prevent LDAP Injection.;SI-10;CUSTOM WEB APP
ASVS 3.0.1;5.12;Verify that the application is not susceptible to OS Command Injection, or that security controls prevent OS Command Injection.;SI-10;CUSTOM WEB APP
ASVS 3.0.1;5.13;Verify that the application is not susceptible to Remote File Inclusion (RFI) or Local File Inclusion (LFI) when content is used that is a path to a file.;SI-10;CUSTOM WEB APP
ASVS 3.0.1;5.14;Verify that the application is not susceptible to common XML attacks, such as XPath query tampering, XML External Entity attacks, and XML injection attacks.;SI-10;CUSTOM WEB APP
ASVS 3.0.1;5.15;Ensure that all string variables placed into HTML or other web client code is either properly contextually encoded manually, or utilize templates that automatically encode contextually to ensure the application is not susceptible to reflected, stored and DOM Cross-Site Scripting (XSS) attacks.;SI-10;CUSTOM WEB APP
ASVS 3.0.1;5.16;If the application framework allows automatic mass parameter assignment (also called automatic variable binding) from the inbound request to a model, verify that security sensitive fields such as ña ccountBalance î, ñr ole î or ñp assword î are protected from malicious automatic binding.;SI-10;CUSTOM WEB APP
ASVS 3.0.1;5.17;Verify that the application has defenses against HTTP parameter pollution attacks, particularly if the application framework makes no distinction about the source of request parameters (GET, POST, cookies, headers, environment, etc.);SI-10;CUSTOM WEB APP
ASVS 3.0.1;5.18;Verify that client side validation is used as a second line of defense, in addition to server side validation.;SI-10;CUSTOM WEB APP
ASVS 3.0.1;5.19;Verify that all input data is validated, not only HTML form fields but all sources of input such as REST calls, query parameters, HTTP headers, cookies, batch files, RSS feeds, etc... using positive validation (whitelisting), then lesser forms of validation such as greylisting (eliminating known bad strings), or rejecting bad inputs (blacklisting).;SI-10;CUSTOM WEB APP
ASVS 3.0.1;5.20;Verify that structured data is strongly typed and validated against a defined schema including allowed characters, length and pattern (e.g. credit card numbers or telephone, or validating that two related fields are reasonable, such as validating suburbs and zip or post codes match).;SI-10;CUSTOM WEB APP
ASVS 3.0.1;5.21;Verify that unstructured data is sanitized to enforce generic safety measures such as allowed characters and length, and characters potentially harmful in given context should be escaped (e.g. natural names with Unicode or apostrophes, such as __ or O'Hara);SI-10;CUSTOM WEB APP
ASVS 3.0.1;5.22;Make sure untrusted HTML from WYSIWYG editors or similar are properly sanitized with an HTML sanitizer and handle it appropriately according to the input validation task and encoding task.;SI-10;CUSTOM WEB APP
ASVS 3.0.1;5.23;For auto-escaping template technology, if UI escaping is disabled, ensure that HTML sanitization is enabled instead.;SI-10;CUSTOM WEB APP
ASVS 3.0.1;5.24;Verify that data transferred from one DOM context to another, uses safe JavaScript methods, such as using .innerText and .val.;SI-10;CUSTOM WEB APP
ASVS 3.0.1;5.25;Verify when parsing JSON in browsers, that JSON.parse is used to parse JSON on the client. Do not use eval() to parse JSON on the client.;SI-10;CUSTOM WEB APP
ASVS 3.0.1;5.26;Verify that authenticated data is cleared from client storage, such as the browser DOM, after the session is terminated.;SI-1;CUSTOM WEB APP
ASVS 3.0.1;7.2;Verify that all cryptographic modules fail securely, and errors are handled in a way that does not enable oracle padding.;SI-17,SC-24;CUSTOM WEB APP
ASVS 3.0.1;7.6;Verify that all random numbers, random file names, random GUIDs, and random strings are generated using the cryptographic moduleÍs approved random number generator when these random values are intended to be not guessable by an attacker.;SC-13;CUSTOM WEB APP
ASVS 3.0.1;7.7;Verify that cryptographic algorithms used by the application have been validated against FIPS 140-2 or an equivalent standard.;SC-13;CUSTOM WEB APP
ASVS 3.0.1;7.8;Verify that cryptographic modules operate in their approved mode according to their published security policies.;SC-12;CUSTOM WEB APP
ASVS 3.0.1;7.9;Verify that there is an explicit policy for how cryptographic keys are managed (e.g., generated, distributed, revoked, and expired). Verify that this key lifecycle is properly enforced.;SC-12;CUSTOM WEB APP
ASVS 3.0.1;7.11;Verify that all consumers of cryptographic services do not have direct access to key material. Isolate cryptographic processes, including master secrets and consider the use of a virtualized or physical hardware key vault (HSM). ;SC-12;CUSTOM WEB APP
ASVS 3.0.1;7.12;Personally Identifiable Information should be stored encrypted at rest and ensure that communication goes via protected channels.;SC-8,SC-28;CUSTOM WEB APP
ASVS 3.0.1;7.13;Verify that sensitive passwords or key material maintained in memory is overwritten with zeros as soon as it no longer required, to mitigate memory dumping attacks.;IA-5;CUSTOM WEB APP
ASVS 3.0.1;7.14;Verify that all keys and passwords are replaceable, and are generated or replaced at installation time.;IA_5;CUSTOM WEB APP
ASVS 3.0.1;7.15;Verify that random numbers are created with proper entropy even when the application is under heavy load, or that the application degrades gracefully in such circumstances.;SC-13;CUSTOM WEB APP
ASVS 3.0.1;8.1;Verify that the application does not output error messages or stack traces containing sensitive data that could assist an attacker, including session id, software/framework versions and personal information;SI-11;CUSTOM WEB APP
ASVS 3.0.1;8.2;Verify that error handling logic in security controls denies access by default.;SI-11;CUSTOM WEB APP
ASVS 3.0.1;8.3;Verify security logging controls provide the ability to log success and particularly failure events that are identified as security-relevant.;AU-2;CUSTOM WEB APP
ASVS 3.0.1;8.4;Verify that each log event includes necessary information that would allow for a detailed investigation of the timeline when an event happens.;AU-3;CUSTOM WEB APP
ASVS 3.0.1;8.5;Verify that all events that include untrusted data will not execute as code in the intended log viewing software.;AU-1;CUSTOM WEB APP
ASVS 3.0.1;8.6;Verify that security logs are protected from unauthorized access and modification.;AU-9;CUSTOM WEB APP
ASVS 3.0.1;8.7;Verify that the application does not log sensitive data as defined under local privacy laws or regulations, organizational sensitive data as defined by a risk assessment, or sensitive authentication data that could assist an attacker, including userÍs session identifiers, passwords, hashes, or API tokens.;AU-1;CUSTOM WEB APP
ASVS 3.0.1;8.8;Verify that all non-printable symbols and field separators are properly encoded in log entries, to prevent log injection.;AU-9;CUSTOM WEB APP
ASVS 3.0.1;8.9;Verify that log fields from trusted and untrusted sources are distinguishable in log entries.;AU-3;CUSTOM WEB APP
ASVS 3.0.1;8.10;Verify that an audit log or similar allows for non-repudiation of key transactions.;AU-10;CUSTOM WEB APP
ASVS 3.0.1;8.11;Verify that security logs have some form of integrity checking or controls to prevent unauthorized modification.;AU-9;CUSTOM WEB APP
ASVS 3.0.1;8.12;Verify that the logs are stored on a different partition than the application is running with proper log rotation.;AU-4;CUSTOM WEB APP
ASVS 3.0.1;8.13;Time sources should be synchronized to ensure logs have the correct time;AU-1;CUSTOM WEB APP
ASVS 3.0.1;9.1;Verify that all forms containing sensitive information have disabled client side caching, including autocomplete features.;SI-12;CUSTOM WEB APP
ASVS 3.0.1;9.2;Verify that the list of sensitive data processed by the application is identified, and that there is an explicit policy for how access to this data must be controlled, encrypted and enforced under relevant data protection directives.;SI-12;CUSTOM WEB APP
ASVS 3.0.1;9.3;Verify that all sensitive data is sent to the server in the HTTP message body or headers (i.e., URL parameters are never used to send sensitive data).;SI-12;CUSTOM WEB APP
ASVS 3.0.1;9.4;Verify that the application sets appropriate anti-caching headers as per the risk of the application, such as the following: Expires: Tue, 03 Jul 2001 06:00:00 GMTLast-Modified: {now} GMTCache-Control: no-store, no-cache, must-revalidate, max-age=0Cache-Control: post-check=0, pre-check=0Pragma: no-cache;SI-12;CUSTOM WEB APP
ASVS 3.0.1;9.5;Verify that on the server, all cached or temporary copies of sensitive data stored are protected from unauthorized access or purged/invalidated after the authorized user accesses the sensitive data.;SI-12;CUSTOM WEB APP
ASVS 3.0.1;9.6;Verify that there is a method to remove each type of sensitive data from the application at the end of the required retention policy.;SI-12;CUSTOM WEB APP
ASVS 3.0.1;9.7;Verify the application minimizes the number of parameters in a request, such as hidden fields, Ajax variables, cookies and header values.;SI-12;CUSTOM WEB APP
ASVS 3.0.1;9.8;Verify the application has the ability to detect and alert on abnormal numbers of requests for data harvesting for an example screen scraping.;SI-4;CUSTOM WEB APP
ASVS 3.0.1;9.9;Verify that data stored in client side storage (such as HTML5 local storage, session storage, IndexedDB, regular cookies or Flash cookies) does not contain sensitive data or PII.;SI-12;CUSTOM WEB APP
ASVS 3.0.1;9.10;Verify accessing sensitive data is logged, if the data is collected under relevant data protection directives or where logging of accesses is required.;AU-2;CUSTOM WEB APP
ASVS 3.0.1;9.11;Verify that sensitive information maintained in memory is overwritten with zeros as soon as it no longer required, to mitigate memory dumping attacks.;SI-12;CUSTOM WEB APP
ASVS 3.0.1;10.1;Verify that a path can be built from a trusted CA to each Transport Layer Security (TLS) server certificate, and that each server certificate is valid.;SC-17;CUSTOM WEB APP
ASVS 3.0.1;10.3;Verify that TLS is used for all connections (including both external and backend connections) that are authenticated or that involve sensitive data or functions, and does not fall back to insecure or unencrypted protocols. Ensure the strongest alternative is the preferred algorithm.;SC-8,SC-24;CUSTOM WEB APP
ASVS 3.0.1;10.4;Verify that backend TLS connection failures are logged.;SC-24;CUSTOM WEB APP
ASVS 3.0.1;10.5;Verify that certificate paths are built and verified for all client certificates using configured trust anchors and revocation information.;SC-17;CUSTOM WEB APP
ASVS 3.0.1;10.6;Verify that all connections to external systems that involve sensitive information or functions are authenticated.;SC-23 ,AC-17,AC-20;CUSTOM WEB APP
ASVS 3.0.1;10.8;Verify that there is a single standard TLS implementation that is used by the application that is configured to operate in an approved mode of operation.;SC-8;CUSTOM WEB APP
ASVS 3.0.1;10.10;Verify that TLS certificate public key pinning (HPKP) is implemented with production and backup public keys. For more information, please see the references below. ;SC-17;CUSTOM WEB APP
ASVS 3.0.1;10.11;Verify that HTTP Strict Transport Security headers are included on all requests and for all subdomains, such as Strict-Transport-Security: max-age=15724800: includeSubdomains;SC-17;CUSTOM WEB APP
ASVS 3.0.1;10.12;Verify that production website URL has been submitted to preloaded list of Strict Transport Security domains maintained by web browser vendors. Please see the references below.;SC-17;CUSTOM WEB APP
ASVS 3.0.1;10.13;Ensure forward secrecy ciphers are in use to mitigate passive attackers recording traffic.;SC-17;CUSTOM WEB APP
ASVS 3.0.1;10.14;Verify that proper certification revocation, such as Online Certificate Status Protocol (OSCP) Stapling, is enabled and configured.;SC-17;CUSTOM WEB APP
ASVS 3.0.1;10.15;Verify that only strong algorithms, ciphers, and protocols are used, through all the certificate hierarchy, including root and intermediary certificates of your selected certifying authority.;SC-17;CUSTOM WEB APP
ASVS 3.0.1;10.16;Verify that the TLS settings are in line with current leading practice, particularly as common configurations, ciphers, and algorithms become insecure.;SC-17;CUSTOM WEB APP
ASVS 3.0.1;11.1;Verify that the application accepts only a defined set of required HTTP request methods, such as GET and POST are accepted, and unused methods (e.g. TRACE, PUT, and DELETE) are explicitly blocked.;SC-8;CUSTOM WEB APP
ASVS 3.0.1;11.2;Verify that every HTTP response contains a content type header specifying a safe character set (e.g., UTF-8, ISO 8859-1).;SC-8;CUSTOM WEB APP
ASVS 3.0.1;11.3;Verify that HTTP headers added by a trusted proxy or SSO devices, such as a bearer token, are authenticated by the application.;SC-8;CUSTOM WEB APP
ASVS 3.0.1;11.4;Verify that a suitable X-FRAME-OPTIONS header is in use for sites where content should not be viewed in a 3rd-party X-Frame;SC-8;CUSTOM WEB APP
ASVS 3.0.1;11.5;Verify that the HTTP headers or any part of the HTTP response do not expose detailed version information of system components.;SC-8;CUSTOM WEB APP
ASVS 3.0.1;11.6;"Verify that all API responses contain X-Content-Type-Options: nosniff and Content-Disposition: attachment: filename=""api.json"" (or other appropriate filename for the content type).";SC-8;CUSTOM WEB APP
ASVS 3.0.1;11.7;Verify that a content security policy (CSPv2) is in place that helps mitigate common DOM, XSS, JSON, and JavaScript injection vulnerabilities. ;SC-8;CUSTOM WEB APP
ASVS 3.0.1;11.8;Verify that the X-XSS-Protection: 1: mode=block header is in place.;SC-8;CUSTOM WEB APP
ASVS 3.0.1;13.1;Verify all malicious activity is adequately sandboxed, containerized or isolated to delay and deter attackers from attacking other applications.;SI-3;CUSTOM WEB APP
ASVS 3.0.1;13.2;Verify that the application source code, and as many third party libraries as possible, does not contain back doors, Easter eggs, and logic flaws in authentication, access control, input validation, and the business logic of high value transactions. ;SI-3;CUSTOM WEB APP
ASVS 3.0.1;15.1;Verify the application will only process business logic flows in sequential step order, with all steps being processed in realistic human time, and not process out of order, skipped steps, process steps from another  user, or too quickly submitted transactions.;SI-3;CUSTOM WEB APP
ASVS 3.0.1;16.2;Verify that untrusted file data submitted to the application is not used directly with file I/O commands, particularly to protect against path traversal, local file include, file mime type, and OS command injection vulnerabilities.;SI-10;CUSTOM WEB APP
ASVS 3.0.1;16.3;Verify that files obtained from untrusted sources are validated to be of expected type and scanned by antivirus scanners to prevent upload of known malicious content.;SI-10;CUSTOM WEB APP
ASVS 3.0.1;16.4;Verify that untrusted data is not used within inclusion, class loader, or reflection capabilities to prevent remote/local file inclusion vulnerabilities.;SI-12;CUSTOM WEB APP
ASVS 3.0.1;16.8;Verify the application code does not execute uploaded data obtained from untrusted sources.;SI-10;CUSTOM WEB APP
ASVS 3.0.1;16.9;Do not use Flash, Active-X, Silverlight, NACL, client-side Java or other client side technologies not supported natively via W3C browser standards.;CM-10;CUSTOM WEB APP
ASVS 3.0.1;17.1;Verify that ID values stored on the device and retrievable by other applications, such as the UDID or IMEI number are not used as authentication tokens.;IA-5;CUSTOM WEB APP
ASVS 3.0.1;17.6;Verify that the application is requesting minimal permissions for required functionality and resources.;AC-6;CUSTOM WEB APP
ASVS 3.0.1;17.10;Verify that sensitive information maintained in memory is overwritten with zeros as soon as it no longer required, to mitigate memory dumping attacks.;SI-12;CUSTOM WEB APP
ASVS 3.0.1;17.11;Verify that the app validates input to exported activities, intents, or content providers.;SI-10;CUSTOM WEB APP
ASVS 3.0.1;18.2;Verify that access to administration and management functions within the Web Service Application is limited to web service administrators.;CM-7;CUSTOM WEB APP
ASVS 3.0.1;18.7;Verify that the REST service is protected from Cross-Site Request Forgery via the use of at least one or more of the following: ORIGIN checks, double submit cookie pattern, CSRF nonces, and referrer checks.;SI-3;CUSTOM WEB APP
ASVS 3.0.1;18.8;Verify the REST service explicitly check the incoming Content-Type to be the expected one, such as application/xml or application/json.;SI-10;CUSTOM WEB APP
ASVS 3.0.1;19.1;All components should be up to date with proper security configuration(s) and version(s). This should include removal of unneeded configurations and folders such as sample applications, platform documentation, and default or example users.;CM-6,CM-8;CUSTOM WEB APP
ASVS 3.0.1;19.2;Communications between components, such as between the application server and the database server, should be encrypted, particularly when the components are in different containers or on different systems.;SC-8;CUSTOM WEB APP
ASVS 3.0.1;19.3;Communications between components, such as between the application server and the database server should be authenticated using an account with the least necessary privileges.;AC-6;CUSTOM WEB APP
ASVS 3.0.1;19.6;Verify that authorised administrators have the capability to verify the integrity of all security-relevant configurations to ensure that they have not been tampered with.;SI-1;CUSTOM WEB APP
CAIQ 3.0.1;AIS-01.1;Do you use industry standards(Build Security in Maturity Model [BSIMM] benchmarks, Open Group ACS Trusted Technology Provider Framework, NIST, etc.) to build in security for your Systems/Software Development Lifecycle(SDLC)?;SA-8,SC-2,SC-4,SC-5,SC-6,SC-7,SC-7(1),SC-7(2),SC-7(3),SC-7(4),SC-7(5),SC-7(7),SC-7(8),SC-7(12),SC-7(13),SC-7(18),SC-8,SC-8(1),SC-9,SC-9(1),SC-10,SC-11,SC-12,SC-12(2),SC-12(5),SC-13,SC-13(1),SC-14,SC-17,SC-18;CUSTOM WEB APP,STORAGE AS SERVICE,IDM
CAIQ 3.0.1;AIS-01.2;Do you use an automated source code analysis tool to detect security defects in code prior to production?;SA-8,SC-2,SC-4,SC-5,SC-6,SC-7,SC-7(1),SC-7(2),SC-7(3),SC-7(4),SC-7(5),SC-7(7),SC-7(8),SC-7(12),SC-7(13),SC-7(18),SC-8,SC-8(1),SC-9,SC-9(1),SC-10,SC-11,SC-12,SC-12(2),SC-12(5),SC-13,SC-13(1),SC-14,SC-17,SC-18;CUSTOM WEB APP,STORAGE AS SERVICE,IDM
CAIQ 3.0.1;AIS-01.3;Do you use manual source-code analysis to detect security defects in code prior to production?;SA-8,SC-2,SC-4,SC-5,SC-6,SC-7,SC-7(1),SC-7(2),SC-7(3),SC-7(4),SC-7(5),SC-7(7),SC-7(8),SC-7(12),SC-7(13),SC-7(18),SC-8,SC-8(1),SC-9,SC-9(1),SC-10,SC-11,SC-12,SC-12(2),SC-12(5),SC-13,SC-13(1),SC-14,SC-17,SC-18;CUSTOM WEB APP,STORAGE AS SERVICE,IDM
CAIQ 3.0.1;AIS-01.4;Do you verify that all of your software suppliers adhere to industry standards for Systems/Software Development Lifecycle(SDLC) security?;SA-8,SC-2,SC-4,SC-5,SC-6,SC-7,SC-7(1),SC-7(2),SC-7(3),SC-7(4),SC-7(5),SC-7(7),SC-7(8),SC-7(12),SC-7(13),SC-7(18),SC-8,SC-8(1),SC-9,SC-9(1),SC-10,SC-11,SC-12,SC-12(2),SC-12(5),SC-13,SC-13(1),SC-14,SC-17,SC-18;CUSTOM WEB APP,STORAGE AS SERVICE,IDM
CAIQ 3.0.1;AIS-01.5;(SaaS only) Do you review your applications for security vulnerabilities and address any issues prior to deployment to production?;SA-8,SC-2,SC-4,SC-5,SC-6,SC-7,SC-7(1),SC-7(2),SC-7(3),SC-7(4),SC-7(5),SC-7(7),SC-7(8),SC-7(12),SC-7(13),SC-7(18),SC-8,SC-8(1),SC-9,SC-9(1),SC-10,SC-11,SC-12,SC-12(2),SC-12(5),SC-13,SC-13(1),SC-14,SC-17,SC-18;CUSTOM WEB APP,STORAGE AS SERVICE,IDM
CAIQ 3.0.1;AIS-02.1;Are all identified security, contractual and regulatory requirements for customer access contractually addressed and remediated prior to granting customers access to data, assets and information systems?;CA-1,CA-2,CA-2(1),CA-5,CA-6;CUSTOM WEB APP,STORAGE AS SERVICE,IDM
CAIQ 3.0.1;AIS- 02.2;Are all requirements and trust levels for customersÍ access defined and documented?;CA-1,CA-2,CA-2(1),CA-5,CA-6;CUSTOM WEB APP,STORAGE AS SERVICE,IDM
CAIQ 3.0.1;AIS-03.1;Are data input and output integrity routines(i.e., reconciliation and edit checks) implemented for application interfaces and databases to prevent manual or systematic processing errors or corruption of data?;SI-2,SI-2(2),SI-3,SI-3(1),SI-3(2),SI-3(3),SI-4,SI-4(2),SI-4(4),SI-4(5),SI-4(6),SI-6,SI-7,SI-7(1),SI-9,SI-10,SI-11;CUSTOM WEB APP,STORAGE AS SERVICE,IDM
CAIQ 3.0.1;AIS-04.1;Is your Data Security Architecture designed using an industry standard(e.g., CDSA, MULITSAFE, CSA Trusted Cloud Architectural Standard, FedRAMP, CAESARS)?;AC-1,AC-4,SC-1,SC-8;CUSTOM WEB APP,STORAGE AS SERVICE,IDM
CAIQ 3.0.1;AAC-01.1;Do you produce audit assertions using a structured, industry accepted format(e.g., CloudAudit/A6 URI Ontology, CloudTrust, SCAP/CYBEX, GRC XML, ISACA's Cloud Computing Management Audit/Assurance Program, etc.)?;CA-2,CA-2(1),CA-7,CA-7(2),PL-6;CUSTOM WEB APP,STORAGE AS SERVICE,IDM
CAIQ 3.0.1;AAC-02.1;Do you allow tenants to view your SOC2/ISO 27001 or similar third-party audit or certification reports?;CA-1,CA-2,CA-2(1),CA-6,RA-5,RA-5(1),RA-5(2),RA-5(3),RA-5(6),RA-5(9);CUSTOM WEB APP,STORAGE AS SERVICE,IDM
CAIQ 3.0.1;AAC-02.2;Do you conduct network penetration tests of your cloud service infrastructure regularly as prescribed by industry best practices and guidance?;CA-1,CA-2,CA-2(1),CA-6,RA-5,RA-5(1),RA-5(2),RA-5(3),RA-5(6),RA-5(9);CUSTOM WEB APP,STORAGE AS SERVICE,IDM
CAIQ 3.0.1;AAC-02.3;Do you conduct application penetration tests of your cloud infrastructure regularly as prescribed by industry best practices and guidance?;CA-1,CA-2,CA-2(1),CA-6,RA-5,RA-5(1),RA-5(2),RA-5(3),RA-5(6),RA-5(9);CUSTOM WEB APP,STORAGE AS SERVICE,IDM
CAIQ 3.0.1;AAC-02.4;Do you conduct internal audits regularly as prescribed by industry best practices and guidance?;CA-1,CA-2,CA-2(1),CA-6,RA-5,RA-5(1),RA-5(2),RA-5(3),RA-5(6),RA-5(9);CUSTOM WEB APP,STORAGE AS SERVICE,IDM
CAIQ 3.0.1;AAC-02.5;Do you conduct external audits regularly as prescribed by industry best practices and guidance?;CA-1,CA-2,CA-2(1),CA-6,RA-5,RA-5(1),RA-5(2),RA-5(3),RA-5(6),RA-5(9);CUSTOM WEB APP,STORAGE AS SERVICE,IDM
CAIQ 3.0.1;AAC-02.6;Are the results of the penetration tests available to tenants at their request?;CA-1,CA-2,CA-2(1),CA-6,RA-5,RA-5(1),RA-5(2),RA-5(3),RA-5(6),RA-5(9);CUSTOM WEB APP,STORAGE AS SERVICE,IDM
CAIQ 3.0.1;AAC-02.7;Are the results of internal and external audits available to tenants at their request?;CA-1,CA-2,CA-2(1),CA-6,RA-5,RA-5(1),RA-5(2),RA-5(3),RA-5(6),RA-5(9);CUSTOM WEB APP,STORAGE AS SERVICE,IDM
CAIQ 3.0.1;AAC-02.8;Do you have an internal audit program that allows for cross-functional audit of assessments?;CA-1,CA-2,CA-2(1),CA-6,RA-5,RA-5(1),RA-5(2),RA-5(3),RA-5(6),RA-5(9);CUSTOM WEB APP,STORAGE AS SERVICE,IDM
CAIQ 3.0.1;BCR-01.1;Do you provide tenants with geographically resilient hosting options?;CP-1,CP-2,CP-2(1),CP-2(2),CP-3,CP-4,CP-4(1),CP-6,CP-6(1),CP-6(3),CP-7,CP-7(1),CP-7(2),CP-7(3),CP-7(5),CP-8,CP-8(1),CP-8(2),CP-9,CP-9(1),CP-9(3),CP-10,CP-10(2),CP-10(3),PE-17;CUSTOM WEB APP,STORAGE AS SERVICE,IDM
CAIQ 3.0.1;BCR-01.2;Do you provide tenants with infrastructure service failover capability to other providers?;CP-1,CP-2,CP-2(1),CP-2(2),CP-3,CP-4,CP-4(1),CP-6,CP-6(1),CP-6(3),CP-7,CP-7(1),CP-7(2),CP-7(3),CP-7(5),CP-8,CP-8(1),CP-8(2),CP-9,CP-9(1),CP-9(3),CP-10,CP-10(2),CP-10(3),PE-17;CUSTOM WEB APP,STORAGE AS SERVICE,IDM
CAIQ 3.0.1;BCR-02.1;Are business continuity plans subject to test at planned intervals or upon significant organizational or environmental changes to ensure continuing effectiveness?;CP-2,CP-2(1),CP-2(2),CP-3,CP-4,CP-4(1);CUSTOM WEB APP,STORAGE AS SERVICE,IDM
CAIQ 3.0.1;BCR-03.1;Do you provide tenants with documentation showing the transport route of their data between your systems?;PE-1,PE-4,PE-13,PE-13(1),PE-13(2),PE-13(3);CUSTOM WEB APP,STORAGE AS SERVICE,IDM
CAIQ 3.0.1;BCR-03.2;Can tenants define how their data is transported and through which legal jurisdictions?;PE-1,PE-4,PE-13,PE-13(1),PE-13(2),PE-13(3);CUSTOM WEB APP,STORAGE AS SERVICE,IDM
CAIQ 3.0.1;BCR-04.1;Are information system documents(e.g., administrator and user guides, architecture diagrams, etc.) made available to authorized personnel to ensure configuration, installation and operation of the information system?;CP-9,CP-9(1),CP-9(3),CP-10,CP-10(2),CP-10(3),SA-5,SA-5(1),SA-5(3),SA-10,SA-11,SA-11(1);CUSTOM WEB APP,STORAGE AS SERVICE,IDM
CAIQ 3.0.1;BCR-05.1;Is physical protection against damage(e.g., natural causes, natural disasters, deliberate attacks) anticipated and designed with countermeasures applied?;PE-1,PE-13,PE-13(1),PE-13(2),PE-13(3),PE-14,PE-15,PE-18;CUSTOM WEB APP,STORAGE AS SERVICE,IDM
CAIQ 3.0.1;BCR-06.1;Are any of your data centers located in places that have a high probability/occurrence of high-impact environmental risks(floods, tornadoes, earthquakes, hurricanes, etc.)?;PE-1,PE-5,PE-14,PE-15,PE-18;CUSTOM WEB APP,STORAGE AS SERVICE,IDM
CAIQ 3.0.1;BCR-07.1;If using virtual infrastructure, does your cloud solution include independent hardware restore and recovery capabilities?;MA-2,MA-2(1),MA-3,MA-3(1),MA-3(2),MA-3(3),MA-4,MA-4(1),MA-4(2),MA-5,MA-6;CUSTOM WEB APP,STORAGE AS SERVICE,IDM
CAIQ 3.0.1;BCR-07.2;If using virtual infrastructure, do you provide tenants with a capability to restore a Virtual Machine to a previous state in time?;MA-2,MA-2(1),MA-3,MA-3(1),MA-3(2),MA-3(3),MA-4,MA-4(1),MA-4(2),MA-5,MA-6;CUSTOM WEB APP,STORAGE AS SERVICE,IDM
CAIQ 3.0.1;BCR-07.3;If using virtual infrastructure, do you allow virtual machine images to be downloaded and ported to a new cloud provider?;MA-2,MA-2(1),MA-3,MA-3(1),MA-3(2),MA-3(3),MA-4,MA-4(1),MA-4(2),MA-5,MA-6;CUSTOM WEB APP,STORAGE AS SERVICE,IDM
CAIQ 3.0.1;BCR-07.4;If using virtual infrastructure, are machine images made available to the customer in a way that would allow the customer to replicate those images in their own off-site storage location?;MA-2,MA-2(1),MA-3,MA-3(1),MA-3(2),MA-3(3),MA-4,MA-4(1),MA-4(2),MA-5,MA-6;CUSTOM WEB APP,STORAGE AS SERVICE,IDM
CAIQ 3.0.1;BCR-07.5;Does your cloud solution include software/provider independent restore and recovery capabilities?;MA-2,MA-2(1),MA-3,MA-3(1),MA-3(2),MA-3(3),MA-4,MA-4(1),MA-4(2),MA-5,MA-6;CUSTOM WEB APP,STORAGE AS SERVICE,IDM
CAIQ 3.0.1;BCR-08.1;Are security mechanisms and redundancies implemented to protect equipment from utility service outages(e.g., power failures, network disruptions, etc.)?;CP-8,CP-8(1),CP-8(2),PE-1,PE-9,PE-10,PE-11,PE-12,PE-13,PE-13(1),PE-13(2),PE-13(3),PE-14;CUSTOM WEB APP,STORAGE AS SERVICE,IDM
CAIQ 3.0.1;BCR-09.1;Do you provide tenants with ongoing visibility and reporting of your operational Service Level Agreement(SLA) performance?;CP-1,CP-2,RA-3;CUSTOM WEB APP,STORAGE AS SERVICE,IDM
CAIQ 3.0.1;BCR-09.2;Do you make standards-based information security metrics(CSA, CAMM, etc.) available to your tenants?;CP-1,CP-2,RA-3;CUSTOM WEB APP,STORAGE AS SERVICE,IDM
CAIQ 3.0.1;BCR-09.3;Do you provide customers with ongoing visibility and reporting of your SLA performance?;CP-1,CP-2,RA-3;CUSTOM WEB APP,STORAGE AS SERVICE,IDM
CAIQ 3.0.1;BCR-10.1;Are policies and procedures established and made available for all personnel to adequately support services operationsÍ roles?;CM-2,CM-2(1),CM-2(3),CM-2(5),CM-3,CM-3(2),CM-4,CM-5,CM-6,CM-6(1),CM-6(3),CM-9,MA-4,MA-4(1),MA-4(2),SA-3,SA-4,SA-4(1),SA-4(4),SA-4(7),SA-5,SA-5(1),SA-5(3),SA-8,SA-10,SA-11,SA-11(1),SA-12;CUSTOM WEB APP,STORAGE AS SERVICE,IDM
CAIQ 3.0.1;BCR-11.1;Do you have technical control capabilities to enforce tenant data retention policies?;CP-2,CP-2(1),CP-2(2),CP-6,CP-6(1),CP-6(3),CP-7,CP-7(1),CP-7(2),CP-7(3),CP-7(5),CP-8,CP-8(1),CP-8(2),CP-9,CP-9(1),CP-9(3);CUSTOM WEB APP,STORAGE AS SERVICE,IDM
CAIQ 3.0.1;BCR-11.2;Do you have a documented procedure for responding to requests for tenant data from governments or third parties?;CP-2,CP-2(1),CP-2(2),CP-6,CP-6(1),CP-6(3),CP-7,CP-7(1),CP-7(2),CP-7(3),CP-7(5),CP-8,CP-8(1),CP-8(2),CP-9,CP-9(1),CP-9(3);CUSTOM WEB APP,STORAGE AS SERVICE,IDM
CAIQ 3.0.1;BCR-11.4;Have you implemented backup or redundancy mechanisms to ensure compliance with regulatory, statutory, contractual or business requirements?;CP-2,CP-2(1),CP-2(2),CP-6,CP-6(1),CP-6(3),CP-7,CP-7(1),CP-7(2),CP-7(3),CP-7(5),CP-8,CP-8(1),CP-8(2),CP-9,CP-9(1),CP-9(3);CUSTOM WEB APP,STORAGE AS SERVICE,IDM
CAIQ 3.0.1;BCR-11.5;Do you test your backup or redundancy mechanisms at least annually?;CP-2,CP-2(1),CP-2(2),CP-6,CP-6(1),CP-6(3),CP-7,CP-7(1),CP-7(2),CP-7(3),CP-7(5),CP-8,CP-8(1),CP-8(2),CP-9,CP-9(1),CP-9(3);CUSTOM WEB APP,STORAGE AS SERVICE,IDM
CAIQ 3.0.1;CCC-01.1;Are policies and procedures established for management authorization for development or acquisition of new applications, systems, databases, infrastructure, services, operations and facilities?;CA-1,CM-1,CM-9,PL-1,PL-2,SA-1,SA-3,SA-4,SA-4(1),SA-4(4),SA-4(7);CUSTOM WEB APP,STORAGE AS SERVICE,IDM
CAIQ 3.0.1;CCC-01.2;Is documentation available that describes the installation, configuration and use of products/services/features?;CA-1,CM-1,CM-9,PL-1,PL-2,SA-1,SA-3,SA-4,SA-4(1),SA-4(4),SA-4(7);CUSTOM WEB APP,STORAGE AS SERVICE,IDM
CAIQ 3.0.1;CCC-02.1;Do you have controls in place to ensure that standards of quality are being met for all software development?;SA-4,SA-4(1),SA-4(4),SA-4(7),SA-5,SA-5(1),SA-5(3),SA-8,SA-9,SA-9(1),SA-10,SA-11,SA-11(1),SA-12;CUSTOM WEB APP,STORAGE AS SERVICE,IDM
CAIQ 3.0.1;CCC-02.2;Do you have controls in place to detect source code security defects for any outsourced software development activities?;SA-4,SA-4(1),SA-4(4),SA-4(7),SA-5,SA-5(1),SA-5(3),SA-8,SA-9,SA-9(1),SA-10,SA-11,SA-11(1),SA-12;CUSTOM WEB APP,STORAGE AS SERVICE,IDM
CAIQ 3.0.1;CCC-03.1;Do you provide your tenants with documentation that describes your quality assurance process?;CM-1,CM-2,CM-2(1),CM-2(3),CM-2(5),SA-3,SA-4,SA-4(1),SA-4(4),SA-4(7),SA-5,SA-5(1),SA-5(3),SA-8,SA-10,SA-11,SA-11(1);CUSTOM WEB APP,STORAGE AS SERVICE,IDM
CAIQ 3.0.1;CCC-03.2;Is documentation describing known issues with certain products/services available?;CM-1,CM-2,CM-2(1),CM-2(3),CM-2(5),SA-3,SA-4,SA-4(1),SA-4(4),SA-4(7),SA-5,SA-5(1),SA-5(3),SA-8,SA-10,SA-11,SA-11(1);CUSTOM WEB APP,STORAGE AS SERVICE,IDM
CAIQ 3.0.1;CCC-03.3;Are there policies and procedures in place to triage and remedy reported bugs and security vulnerabilities for product and service offerings?;CM-1,CM-2,CM-2(1),CM-2(3),CM-2(5),SA-3,SA-4,SA-4(1),SA-4(4),SA-4(7),SA-5,SA-5(1),SA-5(3),SA-8,SA-10,SA-11,SA-11(1);CUSTOM WEB APP,STORAGE AS SERVICE,IDM
CAIQ 3.0.1;CCC-03.4;Are mechanisms in place to ensure that all debugging and test code elements are removed from released software versions?;CM-1,CM-2,CM-2(1),CM-2(3),CM-2(5),SA-3,SA-4,SA-4(1),SA-4(4),SA-4(7),SA-5,SA-5(1),SA-5(3),SA-8,SA-10,SA-11,SA-11(1);CUSTOM WEB APP,STORAGE AS SERVICE,IDM
CAIQ 3.0.1;CCC-04.1;Do you have controls in place to restrict and monitor the installation of unauthorized software onto your systems?;CM-1,CM-2,CM-2(1),CM-2(3),CM-2(5),CM-3,CM-3(2),CM-5,CM-5(1),CM-5(5),CM-7,CM-7(1),CM-8,CM-8(1),CM-8(3),CM-8(5),CM-9,SA-6,SA-7,SI-1,SI-3,SI-3(1),SI-3(2),SI-3(3),SI-4,SI-4(2),SI-4(4),SI-4(5),SI-4(6),SI-7,SI-7(1);CUSTOM WEB APP,STORAGE AS SERVICE,IDM
CAIQ 3.0.1;CCC-05.1;Do you provide tenants with documentation that describes your production change management procedures and their roles/rights/responsibilities within it?;CA-1,CA-6,CA-7,CA-7(2),CM-2,CM-2(1),CM-2(3),CM-2(5),CM-3,CM-3(2),CM-5,CM-5(1),CM-5(5),CM-6,CM-6(1),CM-6(3),CM-9,PL-2,PL-5,SI-2,SI-2(2),SI-6,SI-7,SI-7(1);CUSTOM WEB APP,STORAGE AS SERVICE,IDM
CAIQ 3.0.1;DSI-01.1;Do you provide a capability to identify virtual machines via policy tags/metadata(e.g., tags can be used to limit guest operating systems from booting/instantiating/transporting data in the wrong country)?;RA-2,AC-4;CUSTOM WEB APP,STORAGE AS SERVICE,IDM
CAIQ 3.0.1;DSI-01.2;Do you provide a capability to identify hardware via policy tags/metadata/hardware tags(e.g., TXT/TPM, VN-Tag, etc.)?;RA-2,AC-4;CUSTOM WEB APP,STORAGE AS SERVICE,IDM
CAIQ 3.0.1;DSI-01.3;Do you have a capability to use system geographic location as an authentication factor?;RA-2,AC-4;CUSTOM WEB APP,STORAGE AS SERVICE,IDM
CAIQ 3.0.1;DSI-01.4;Can you provide the physical location/geography of storage of a tenantÍs data upon request?;RA-2,AC-4;CUSTOM WEB APP,STORAGE AS SERVICE,IDM
CAIQ 3.0.1;DSI-01.5;Can you provide the physical location/geography of storage of a tenant's data in advance?;RA-2,AC-4;CUSTOM WEB APP,STORAGE AS SERVICE,IDM
CAIQ 3.0.1;DSI-01.6;Do you follow a structured data-labeling standard(e.g., ISO 15489, Oasis XML Catalog Specification, CSA data type guidance)?;RA-2,AC-4;CUSTOM WEB APP,STORAGE AS SERVICE,IDM
CAIQ 3.0.1;DSI-01.7;Do you allow tenants to define acceptable geographical locations for data routing or resource instantiation?;RA-2,AC-4;CUSTOM WEB APP,STORAGE AS SERVICE,IDM
CAIQ 3.0.1;DSI-03.1;Do you provide open encryption methodologies(3.4ES, AES, etc.) to tenants in order for them to protect their data if it is required to move through public networks(e.g., the Internet)?;AC-22,AU-10,AU-10(5),SC-8,SC-8(1),SC-9,SC-9(1);CUSTOM WEB APP,STORAGE AS SERVICE,IDM
CAIQ 3.0.1;DSI-03.2;Do you utilize open encryption methodologies any time your infrastructure components need to communicate with each other via public networks(e.g., Internet-based replication of data from one environment to another)?;AC-22,AU-10,AU-10(5),SC-8,SC-8(1),SC-9,SC-9(1);CUSTOM WEB APP,STORAGE AS SERVICE,IDM
CAIQ 3.0.1;DSI-04.1;Are policies and procedures established for labeling, handling and the security of data and objects that contain data?;AC-1,AC-16,MP-1,MP-3,PE-16,SC-9,SC-9(1),SI-1,SI-12;CUSTOM WEB APP,STORAGE AS SERVICE,IDM
CAIQ 3.0.1;DSI-04.2;Are mechanisms for label inheritance implemented for objects that act as aggregate containers for data?;AC-1,AC-16,MP-1,MP-3,PE-16,SC-9,SC-9(1),SI-1,SI-12;CUSTOM WEB APP,STORAGE AS SERVICE,IDM
CAIQ 3.0.1;DSI-05.1;Do you have procedures in place to ensure production data shall not be replicated or used in non-production environments?;SA-11,SA-11(1);CUSTOM WEB APP,STORAGE AS SERVICE,IDM
CAIQ 3.0.1;DSI-06.1;Are the responsibilities regarding data stewardship defined, assigned, documented and communicated?;CA-2,CA-2(1),PS-2,RA-2,SA-2;CUSTOM WEB APP,STORAGE AS SERVICE,IDM
CAIQ 3.0.1;DSI-07.1;Do you support secure deletion(e.g., degaussing/cryptographic wiping) of archived and backed-up data as determined by the tenant?;MP-6,MP-6(4),PE-1;CUSTOM WEB APP,STORAGE AS SERVICE,IDM
CAIQ 3.0.1;DSI-07.2;Can you provide a published procedure for exiting the service arrangement, including assurance to sanitize all computing resources of tenant data once a customer has exited your environment or has vacated a resource?;MP-6,MP-6(4),PE-1;CUSTOM WEB APP,STORAGE AS SERVICE,IDM
CAIQ 3.0.1;DCS-02.1;Are physical security perimeters(e.g., fences, walls, barriers, guards, gates, electronic surveillance, physical authentication mechanisms, reception desks and security patrols) implemented?;PE-2,PE-3,PE-6,PE-6(1),PE-7,PE-7(1),PE-8,PE-18;CUSTOM WEB APP,STORAGE AS SERVICE,IDM
CAIQ 3.0.1;DCS-03.1;Is automated equipment identification used as a method to validate connection authentication integrity based on known equipment location?;IA-3,IA-4,IA-4(4);CUSTOM WEB APP,STORAGE AS SERVICE,IDM
CAIQ 3.0.1;DCS-04.1;Do you provide tenants with documentation that describes scenarios in which data may be moved from one physical location to another?(e.g., offsite backups, business continuity failovers, replication);AC-17,AC-17(1),AC-17(2),AC-17(3),AC-17(4),AC-17(5),AC-17(7),AC-17(8),MA-1,PE-1,PE-16,PE-17;CUSTOM WEB APP,STORAGE AS SERVICE,IDM
CAIQ 3.0.1;DCS-05.1;Can you provide tenants with evidence documenting your policies and procedures governing asset management and repurposing of equipment?;CM-8,CM-8(1),CM-8(3),CM-8(5),SC-30;CUSTOM WEB APP,STORAGE AS SERVICE,IDM
CAIQ 3.0.1;DCS-06.1;Can you provide evidence that policies, standards and procedures have been established for maintaining a safe and secure working environment in offices, rooms, facilities and secure areas?;PE-2,PE-3,PE-4,PE-5,PE-6,PE-6(1);CUSTOM WEB APP,STORAGE AS SERVICE,IDM
CAIQ 3.0.1;DCS-06.2;Can you provide evidence that your personnel and involved third parties have been trained regarding your documented policies, standards and procedures?;PE-2,PE-3,PE-4,PE-5,PE-6,PE-6(1);CUSTOM WEB APP,STORAGE AS SERVICE,IDM
CAIQ 3.0.1;DCS-07.1;Do you allow tenants to specify which of your geographic locations their data is allowed to move into/out of(to address legal jurisdictional considerations based on where data is stored vs. accessed)?;PE-7,PE-7(1),PE-16,PE-18;CUSTOM WEB APP,STORAGE AS SERVICE,IDM
CAIQ 3.0.1;DCS-08.1;Are ingress and egress points, such as service areas and other points where unauthorized personnel may enter the premises, monitored, controlled and isolated from data storage and process?;MA-1,MA-2,MA-2(1),PE-16;CUSTOM WEB APP,STORAGE AS SERVICE,IDM
CAIQ 3.0.1;DCS-09.1;Do you restrict physical access to information assets and functions by users and support personnel?;PE-2,PE-3,PE-6,PE-6(1),PE-18;CUSTOM WEB APP,STORAGE AS SERVICE,IDM
CAIQ 3.0.1;EKM-02.1;Do you have a capability to allow creation of unique encryption keys per tenant?;SC-12,SC-12(2),SC-12(5),SC-13,SC-13(1),SC-17;CUSTOM WEB APP,STORAGE AS SERVICE,IDM
CAIQ 3.0.1;EKM-02.2;Do you have a capability to manage encryption keys on behalf of tenants?;SC-12,SC-12(2),SC-12(5),SC-13,SC-13(1),SC-17;CUSTOM WEB APP,STORAGE AS SERVICE,IDM
CAIQ 3.0.1;EKM-02.3;Do you maintain key management procedures?;SC-12,SC-12(2),SC-12(5),SC-13,SC-13(1),SC-17;CUSTOM WEB APP,STORAGE AS SERVICE,IDM
CAIQ 3.0.1;EKM-02.4;Do you have documented ownership for each stage of the lifecycle of encryption keys?;SC-12,SC-12(2),SC-12(5),SC-13,SC-13(1),SC-17;CUSTOM WEB APP,STORAGE AS SERVICE,IDM
CAIQ 3.0.1;EKM-02.5;Do you utilize any third party/open source/proprietary frameworks to manage encryption keys?;SC-12,SC-12(2),SC-12(5),SC-13,SC-13(1),SC-17;CUSTOM WEB APP,STORAGE AS SERVICE,IDM
CAIQ 3.0.1;EKM-03.1;Do you encrypt tenant data at rest(on disk/storage) within your environment?;AC-18,AC-18(1),AC-18(2),IA-7,SC-7,SC-7(4),SC-8,SC-8(1),SC-9,SC-9(1),SC-13,SC-13(1),SC-23,SC-28,SI-8;CUSTOM WEB APP,STORAGE AS SERVICE,IDM
CAIQ 3.0.1;EKM-03.2;Do you leverage encryption to protect data and virtual machine images during transport across and between networks and hypervisor instances?;AC-18,AC-18(1),AC-18(2),IA-7,SC-7,SC-7(4),SC-8,SC-8(1),SC-9,SC-9(1),SC-13,SC-13(1),SC-23,SC-28,SI-8;CUSTOM WEB APP,STORAGE AS SERVICE,IDM
CAIQ 3.0.1;EKM-03.3;Do you support tenant-generated encryption keys or permit tenants to encrypt data to an identity without access to a public key certificate(e.g., identity-based encryption)?;AC-18,AC-18(1),AC-18(2),IA-7,SC-7,SC-7(4),SC-8,SC-8(1),SC-9,SC-9(1),SC-13,SC-13(1),SC-23,SC-28,SI-8;CUSTOM WEB APP,STORAGE AS SERVICE,IDM
CAIQ 3.0.1;EKM-03.4;Do you have documentation establishing and defining your encryption management policies, procedures and guidelines?;AC-18,AC-18(1),AC-18(2),IA-7,SC-7,SC-7(4),SC-8,SC-8(1),SC-9,SC-9(1),SC-13,SC-13(1),SC-23,SC-28,SI-8;CUSTOM WEB APP,STORAGE AS SERVICE,IDM
CAIQ 3.0.1;GRM-01.1;Do you have documented information security baselines for every component of your infrastructure(e.g., hypervisors, operating systems, routers, DNS servers, etc.)?;CM-2,CM-2(1),CM-2(3),CM-2(5),SA-2,SA-4,SA-4(1),SA-4(4),SA-4(7),SC-30;CUSTOM WEB APP,STORAGE AS SERVICE,IDM
CAIQ 3.0.1;GRM-01.2;Do you have a capability to continuously monitor and report the compliance of your infrastructure against your information security baselines?;CM-2,CM-2(1),CM-2(3),CM-2(5),SA-2,SA-4,SA-4(1),SA-4(4),SA-4(7),SC-30;CUSTOM WEB APP,STORAGE AS SERVICE,IDM
CAIQ 3.0.1;GRM-01.3;Do you allow your clients to provide their own trusted virtual machine image to ensure conformance to their own internal standards?;CM-2,CM-2(1),CM-2(3),CM-2(5),SA-2,SA-4,SA-4(1),SA-4(4),SA-4(7),SC-30;CUSTOM WEB APP,STORAGE AS SERVICE,IDM
CAIQ 3.0.1;GRM-02.1;Do you provide security control health data in order to allow tenants to implement industry standard Continuous Monitoring(which allows continual tenant validation of your physical and logical control status)?;CA-3,RA-2,RA-3,SI-12;CUSTOM WEB APP,STORAGE AS SERVICE,IDM
CAIQ 3.0.1;GRM-02.2;Do you conduct risk assessments associated with data governance requirements at least once a year?;CA-3,RA-2,RA-3,SI-12;CUSTOM WEB APP,STORAGE AS SERVICE,IDM
CAIQ 3.0.1;GRM-03.1;Are your technical, business, and executive managers responsible for maintaining awareness of and compliance with security policies, procedures, and standards for both themselves and their employees as they pertain to the manager and employees' area of responsibility?;AT-2,AT-3,AT-4,CA-1,CA-5,CA-6,CA-7,CA-7(2);CUSTOM WEB APP,STORAGE AS SERVICE,IDM
CAIQ 3.0.1;GRM-05.1;Do you ensure your providers adhere to your information security and privacy policies?;CM-1;CUSTOM WEB APP,STORAGE AS SERVICE,IDM
CAIQ 3.0.1;GRM-06.1;Do your information security and privacy policies align with industry standards(ISO-27001, ISO-22307, CoBIT, etc.)?;AC-1,AT-1,AU-1,CA-1,CM-1,IA-1,IR-1,MA-1,MP-1,PE-1,PL-1,PS-1,SA-1,SC-1,SI-1;CUSTOM WEB APP,STORAGE AS SERVICE,IDM
CAIQ 3.0.1;GRM-06.2;Do you have agreements to ensure your providers adhere to your information security and privacy policies?;AC-1,AT-1,AU-1,CA-1,CM-1,IA-1,IR-1,MA-1,MP-1,PE-1,PL-1,PS-1,SA-1,SC-1,SI-1;CUSTOM WEB APP,STORAGE AS SERVICE,IDM
CAIQ 3.0.1;GRM-06.3;Can you provide evidence of due diligence mapping of your controls, architecture and processes to regulations and/or standards?;AC-1,AT-1,AU-1,CA-1,CM-1,IA-1,IR-1,MA-1,MP-1,PE-1,PL-1,PS-1,SA-1,SC-1,SI-1;CUSTOM WEB APP,STORAGE AS SERVICE,IDM
CAIQ 3.0.1;GRM-06.4;Do you disclose which controls, standards, certifications and/or regulations you comply with?;AC-1,AT-1,AU-1,CA-1,CM-1,IA-1,IR-1,MA-1,MP-1,PE-1,PL-1,PS-1,SA-1,SC-1,SI-1;CUSTOM WEB APP,STORAGE AS SERVICE,IDM
CAIQ 3.0.1;GRM-07.1;Is a formal disciplinary or sanction policy established for employees who have violated security policies and procedures?;PL-4,PS-1,PS-8;CUSTOM WEB APP,STORAGE AS SERVICE,IDM
CAIQ 3.0.1;GRM-07.2;Are employees made aware of what actions could be taken in the event of a violation via their policies and procedures?;PL-4,PS-1,PS-8;CUSTOM WEB APP,STORAGE AS SERVICE,IDM
CAIQ 3.0.1;GRM-08.1;Do risk assessment results include updates to security policies, procedures, standards and controls to ensure they remain relevant and effective?;AC-1,AT-1,AU-1,CA-1,CM-1,CP-1,IA-1,IR-1,MA-1,MP-1,PE-1,PL-1,PS-1,RA-1,RA-3,SC-1,SI-1;CUSTOM WEB APP,STORAGE AS SERVICE,IDM
CAIQ 3.0.1;GRM-09.1;Do you notify your tenants when you make material changes to your information security and/or privacy policies?;AC-1,AT-1,AU-1,CA-1,CM-1,CP-1,IA-1,IA-5,IA-5(1),IA-5(2),IA-5(3),IA-5(6),IA-5(7),IR-1,MA-1,MP-1,PE-1,PL-1,PS-1,RA-1,SA-1,SC-1,SI-1;CUSTOM WEB APP,STORAGE AS SERVICE,IDM
CAIQ 3.0.1;GRM-09.2;Do you perform, at minimum, annual reviews to your privacy and security policies?;AC-1,AT-1,AU-1,CA-1,CM-1,CP-1,IA-1,IA-5,IA-5(1),IA-5(2),IA-5(3),IA-5(6),IA-5(7),IR-1,MA-1,MP-1,PE-1,PL-1,PS-1,RA-1,SA-1,SC-1,SI-1;CUSTOM WEB APP,STORAGE AS SERVICE,IDM
CAIQ 3.0.1;GRM-10.1;Are formal risk assessments aligned with the enterprise-wide framework and performed at least annually, or at planned intervals, determining the likelihood and impact of all identified risks, using qualitative and quantitative methods?;RA-1,RA-2,RA-3,SC-30;CUSTOM WEB APP,STORAGE AS SERVICE,IDM
CAIQ 3.0.1;GRM-10.2;Is the likelihood and impact associated with inherent and residual risk determined independently, considering all risk categories(e.g., audit results, threat and vulnerability analysis, and regulatory compliance)?;RA-1,RA-2,RA-3,SC-30;CUSTOM WEB APP,STORAGE AS SERVICE,IDM
CAIQ 3.0.1;GRM-11.1;Do you have a documented, organization-wide program in place to manage risk?;AC-1,AT-1,AU-1,CA-1,CA-6,CA-7,PL-1,RA-1,RA-2,RA-3,SA-9(1),SC-30,SI-4,SI-4(2),SI-4(4),SI-4(5),SI-4(6),CM-1;CUSTOM WEB APP,STORAGE AS SERVICE,IDM
CAIQ 3.0.1;GRM-11.2;Do you make available documentation of your organization-wide risk management program?;AC-1,AT-1,AU-1,CA-1,CA-6,CA-7,PL-1,RA-1,RA-2,RA-3,SA-9(1),SC-30,SI-4,SI-4(2),SI-4(4),SI-4(5),SI-4(6),CM-1;CUSTOM WEB APP,STORAGE AS SERVICE,IDM
CAIQ 3.0.1;HRS-01.1;Are systems in place to monitor for privacy breaches and notify tenants expeditiously if a privacy event may have impacted their data?;PS-4;CUSTOM WEB APP,STORAGE AS SERVICE,IDM
CAIQ 3.0.1;HRS-01.2;Is your Privacy Policy aligned with industry standards?;PS-4;CUSTOM WEB APP,STORAGE AS SERVICE,IDM
CAIQ 3.0.1;HRS-02.1;Pursuant to local laws, regulations, ethics and contractual constraints, are all employment candidates, contractors and involved third parties subject to background verification?;PS-2,PS-3;CUSTOM WEB APP,STORAGE AS SERVICE,IDM
CAIQ 3.0.1;HRS-03.1;Do you specifically train your employees regarding their specific role and the information security controls they must fulfill?;PS-1,PS-2,PS-6,PS-7;CUSTOM WEB APP,STORAGE AS SERVICE,IDM
CAIQ 3.0.1;HRS-03.2;Do you document employee acknowledgment of training they have completed?;PS-1,PS-2,PS-6,PS-7;CUSTOM WEB APP,STORAGE AS SERVICE,IDM
CAIQ 3.0.1;HRS-03.3;Are all personnel required to sign NDA or Confidentiality Agreements as a condition of employment to protect customer/tenant information?;PS-1,PS-2,PS-6,PS-7;CUSTOM WEB APP,STORAGE AS SERVICE,IDM
CAIQ 3.0.1;HRS-03.4;Is successful and timed completion of the training program considered a prerequisite for acquiring and maintaining access to sensitive systems?;PS-1,PS-2,PS-6,PS-7;CUSTOM WEB APP,STORAGE AS SERVICE,IDM
CAIQ 3.0.1;HRS-03.5;Are personnel trained and provided with awareness programs at least once a year?;PS-1,PS-2,PS-6,PS-7;CUSTOM WEB APP,STORAGE AS SERVICE,IDM
CAIQ 3.0.1;HRS-04.1;Are documented policies, procedures and guidelines in place to govern change in employment and/or termination?;PS-2,PS-4,PS-5,PS-6,PS-8;CUSTOM WEB APP,STORAGE AS SERVICE,IDM
CAIQ 3.0.1;HRS-04.2;Do the above procedures and guidelines account for timely revocation of access and return of assets?;PS-2,PS-4,PS-5,PS-6,PS-8;CUSTOM WEB APP,STORAGE AS SERVICE,IDM
CAIQ 3.0.1;HRS-05.1;Are policies and procedures established and measures implemented to strictly limit access to your sensitive data and tenant data from portable and mobile devices(e.g., laptops, cell phones and personal digital assistants(PDAs)), which are generally higher-risk than non-portable devices(e.g., desktop computers at the provider organizationÍs facilities)?;AC-17,AC-17(1),AC-17(2),AC-17(3),AC-17(4),AC-17(5),AC-17(7),AC-17(8),AC-18,AC-18(1),AC-18(2),AC-19,AC-19(1),AC-19(2),AC-19(3),MP-2,MP-2(1),MP-4,MP-4(1),MP-6,MP-6(4);CUSTOM WEB APP,STORAGE AS SERVICE,IDM
CAIQ 3.0.1;HRS-06.1;Are requirements for non-disclosure or confidentiality agreements reflecting the organization's needs for the protection of data and operational details identified, documented and reviewed at planned intervals?;PL-4,PS-6,SA-9,SA-9(1);CUSTOM WEB APP,STORAGE AS SERVICE,IDM
CAIQ 3.0.1;HRS-07.1;Do you provide tenants with a role definition document clarifying your administrative responsibilities versus those of the tenant?;PL-4,PS-1,PS-2,PS-6,PS-7;CUSTOM WEB APP,STORAGE AS SERVICE,IDM
CAIQ 3.0.1;HRS-08.1;Do you provide documentation regarding how you may or access tenant data and metadata?;AC-8,AC-20,AC-20(1),AC-20(2),PL-4;CUSTOM WEB APP,STORAGE AS SERVICE,IDM
CAIQ 3.0.1;HRS-08.2;Do you collect or create metadata about tenant data usage through inspection technologies(search engines, etc.)?;AC-8,AC-20,AC-20(1),AC-20(2),PL-4;CUSTOM WEB APP,STORAGE AS SERVICE,IDM
CAIQ 3.0.1;HRS-08.3;Do you allow tenants to opt out of having their data/metadata accessed via inspection technologies?;AC-8,AC-20,AC-20(1),AC-20(2),PL-4;CUSTOM WEB APP,STORAGE AS SERVICE,IDM
CAIQ 3.0.1;HRS-09.1;Do you provide a formal, role-based, security awareness training program for cloud-related access and data management issues(e.g., multi-tenancy, nationality, cloud delivery model segregation of duties implications and conflicts of interest) for all persons with access to tenant data?;AT-1,AT-2,AT-3,AT-4;CUSTOM WEB APP,STORAGE AS SERVICE,IDM
CAIQ 3.0.1;HRS-09.2;Are administrators and data stewards properly educated on their legal responsibilities with regard to security and data integrity?;AT-1,AT-2,AT-3,AT-4;CUSTOM WEB APP,STORAGE AS SERVICE,IDM
CAIQ 3.0.1;HRS-10.1;Are users made aware of their responsibilities for maintaining awareness and compliance with published security policies, procedures, standards and applicable regulatory requirements?;AT-2,AT-3,AT-4,PL-4;CUSTOM WEB APP,STORAGE AS SERVICE,IDM
CAIQ 3.0.1;HRS-10.2;Are users made aware of their responsibilities for maintaining a safe and secure working environment?;AT-2,AT-3,AT-4,PL-4;CUSTOM WEB APP,STORAGE AS SERVICE,IDM
CAIQ 3.0.1;HRS-10.3;Are users made aware of their responsibilities for leaving unattended equipment in a secure manner?;AT-2,AT-3,AT-4,PL-4;CUSTOM WEB APP,STORAGE AS SERVICE,IDM
CAIQ 3.0.1;HRS-11.1;Do your data management policies and procedures address tenant and service level conflicts of interests?;AC-11,MP-1,MP-2,MP-2(1),MP-3,MP-4,MP-4(1);CUSTOM WEB APP,STORAGE AS SERVICE,IDM
CAIQ 3.0.1;HRS-11.2;Do your data management policies and procedures include a tamper audit or software integrity function for unauthorized access to tenant data?;AC-11,MP-1,MP-2,MP-2(1),MP-3,MP-4,MP-4(1);CUSTOM WEB APP,STORAGE AS SERVICE,IDM
CAIQ 3.0.1;HRS-11.3;Does the virtual machine management infrastructure include a tamper audit or software integrity function to detect changes to the build/configuration of the virtual machine?;AC-11,MP-1,MP-2,MP-2(1),MP-3,MP-4,MP-4(1);CUSTOM WEB APP,STORAGE AS SERVICE,IDM
CAIQ 3.0.1;IAM-01.1;Do you restrict, log and monitor access to your information security management systems?(E.g., hypervisors, firewalls, vulnerability scanners, network sniffers, APIs, etc.);AU-9,AU-9(2);CUSTOM WEB APP,STORAGE AS SERVICE,IDM
CAIQ 3.0.1;IAM-01.2;Do you monitor and log privileged access(administrator level) to information security management systems?;AU-9,AU-9(2);CUSTOM WEB APP,STORAGE AS SERVICE,IDM
CAIQ 3.0.1;IAM-02.1;Do you have controls in place ensuring timely removal of systems access that is no longer required for business purposes?;AC-1,AC-7,AC-10,AC-14,IA-1;CUSTOM WEB APP,STORAGE AS SERVICE,IDM
CAIQ 3.0.1;IAM-02.2;Do you provide metrics to track the speed with which you are able to remove systems access that is no longer required for business purposes?;AC-1,AC-7,AC-10,AC-14,IA-1;CUSTOM WEB APP,STORAGE AS SERVICE,IDM
CAIQ 3.0.1;IAM-03.1;Do you use dedicated secure networks to provide management access to your cloud service infrastructure?;AC-1,AC-2,AC-2(1),AC-2(2),AC-2(3),AC-2(4),AC-2(7),AC-5,AC-6,AC-6(1),AC-6(2),AU-1,AU-2,AU-6,AU-6(1),AU-6(3),SI-4,SI-4(2),SI-4(4),SI-4(5),SI-4(6);CUSTOM WEB APP,STORAGE AS SERVICE,IDM
CAIQ 3.0.1;IAM-05.1;Do you provide tenants with documentation on how you maintain segregation of duties within your cloud service offering?;AC-1,AC-2,AC-2(1),AC-2(2),AC-2(3),AC-2(4),AC-2(7),AC-5,AC-6,AC-6(1),AC-6(2),AU-1,AU-2,AU-6,AU-6(1),AU-6(3),SI-4,SI-4(2),SI-4(4),SI-4(5),SI-4(6);CUSTOM WEB APP,STORAGE AS SERVICE,IDM
CAIQ 3.0.1;IAM-06.1;Are controls in place to prevent unauthorized access to your application, program or object source code, and assure it is restricted to authorized personnel only?;CM-5,CM-5(1),CM-5(5);CUSTOM WEB APP,STORAGE AS SERVICE,IDM
CAIQ 3.0.1;IAM-07.1;Do you provide multi-failure disaster recovery capability?;AC-1,AT-1,AU-1,CA-1,CM-1,CP-1,IA-1,IA-4,IA-5,IA-5(1),IA-5(2),IA-5(3),IA-5(6),IA-5(7),IA-8,IR-1,MA-1,MP-1,PE-1,PL-1,PS-1,RA-1,SA-1,SC-1,SI-1;CUSTOM WEB APP,STORAGE AS SERVICE,IDM
CAIQ 3.0.1;IAM-07.2;Do you monitor service continuity with upstream providers in the event of provider failure?;AC-1,AT-1,AU-1,CA-1,CM-1,CP-1,IA-1,IA-4,IA-5,IA-5(1),IA-5(2),IA-5(3),IA-5(6),IA-5(7),IA-8,IR-1,MA-1,MP-1,PE-1,PL-1,PS-1,RA-1,SA-1,SC-1,SI-1;CUSTOM WEB APP,STORAGE AS SERVICE,IDM
CAIQ 3.0.1;IAM-07.3;Do you have more than one provider for each service you depend on?;AC-1,AT-1,AU-1,CA-1,CM-1,CP-1,IA-1,IA-4,IA-5,IA-5(1),IA-5(2),IA-5(3),IA-5(6),IA-5(7),IA-8,IR-1,MA-1,MP-1,PE-1,PL-1,PS-1,RA-1,SA-1,SC-1,SI-1;CUSTOM WEB APP,STORAGE AS SERVICE,IDM
CAIQ 3.0.1;IAM-07.4;Do you provide access to operational redundancy and continuity summaries, including the services you depend on?;AC-1,AT-1,AU-1,CA-1,CM-1,CP-1,IA-1,IA-4,IA-5,IA-5(1),IA-5(2),IA-5(3),IA-5(6),IA-5(7),IA-8,IR-1,MA-1,MP-1,PE-1,PL-1,PS-1,RA-1,SA-1,SC-1,SI-1;CUSTOM WEB APP,STORAGE AS SERVICE,IDM
CAIQ 3.0.1;IAM-07.5;Do you provide the tenant the ability to declare a disaster?;AC-1,AT-1,AU-1,CA-1,CM-1,CP-1,IA-1,IA-4,IA-5,IA-5(1),IA-5(2),IA-5(3),IA-5(6),IA-5(7),IA-8,IR-1,MA-1,MP-1,PE-1,PL-1,PS-1,RA-1,SA-1,SC-1,SI-1;CUSTOM WEB APP,STORAGE AS SERVICE,IDM
CAIQ 3.0.1;IAM-07.6;Do you provided a tenant-triggered failover option?;AC-1,AT-1,AU-1,CA-1,CM-1,CP-1,IA-1,IA-4,IA-5,IA-5(1),IA-5(2),IA-5(3),IA-5(6),IA-5(7),IA-8,IR-1,MA-1,MP-1,PE-1,PL-1,PS-1,RA-1,SA-1,SC-1,SI-1;CUSTOM WEB APP,STORAGE AS SERVICE,IDM
CAIQ 3.0.1;IAM-07.7;Do you share your business continuity and redundancy plans with your tenants?;AC-1,AT-1,AU-1,CA-1,CM-1,CP-1,IA-1,IA-4,IA-5,IA-5(1),IA-5(2),IA-5(3),IA-5(6),IA-5(7),IA-8,IR-1,MA-1,MP-1,PE-1,PL-1,PS-1,RA-1,SA-1,SC-1,SI-1;CUSTOM WEB APP,STORAGE AS SERVICE,IDM
CAIQ 3.0.1;IAM-09.1;Does your management provision the authorization and restrictions for user access(e.g., employees, contractors, customers(tenants), business partners and/or suppliers) prior to their access to data and any owned or managed(physical and virtual) applications, infrastructure systems and network components?;AC-3,AC-3(3),AC-5,AC-6,AC-6(1),AC-6(2),IA-2,IA-2(1),IA-2(2),IA-2(3),IA-2(8),IA-4,IA-4(4),IA-5,IA-5(1),IA-5(2),IA-5(3),IA-5(6),IA-5(7),IA-8,MA-5,PS-6,SA-7,SC-30,SI-9;CUSTOM WEB APP,STORAGE AS SERVICE,IDM
CAIQ 3.0.1;IAM-09.2;Do your provide upon request user access(e.g., employees, contractors, customers(tenants), business partners and/or suppliers) to data and any owned or managed(physical and virtual) applications, infrastructure systems and network components?;AC-3,AC-3(3),AC-5,AC-6,AC-6(1),AC-6(2),IA-2,IA-2(1),IA-2(2),IA-2(3),IA-2(8),IA-4,IA-4(4),IA-5,IA-5(1),IA-5(2),IA-5(3),IA-5(6),IA-5(7),IA-8,MA-5,PS-6,SA-7,SC-30,SI-9;CUSTOM WEB APP,STORAGE AS SERVICE,IDM
CAIQ 3.0.1;IAM-10.1;Do you require at least annual certification of entitlements for all system users and administrators(exclusive of users maintained by your tenants)?;AC-2,AC-2(1),AC-2(2),AC-2(3),AC-2(4),AC-2(7),AU-6,AU-6(1),AU-6(3),PS-6,PS-7;CUSTOM WEB APP,STORAGE AS SERVICE,IDM
CAIQ 3.0.1;IAM-10.2;If users are found to have inappropriate entitlements, are all remediation and certification actions recorded?;AC-2,AC-2(1),AC-2(2),AC-2(3),AC-2(4),AC-2(7),AU-6,AU-6(1),AU-6(3),PS-6,PS-7;CUSTOM WEB APP,STORAGE AS SERVICE,IDM
CAIQ 3.0.1;IAM-10.3;Will you share user entitlement remediation and certification reports with your tenants, if inappropriate access may have been allowed to tenant data?;AC-2,AC-2(1),AC-2(2),AC-2(3),AC-2(4),AC-2(7),AU-6,AU-6(1),AU-6(3),PS-6,PS-7;CUSTOM WEB APP,STORAGE AS SERVICE,IDM
CAIQ 3.0.1;IAM-11.1;Is timely deprovisioning, revocation or modification of user access to the organizations systems, information assets and data implemented upon any change in status of employees, contractors, customers, business partners or involved third parties?;AC-2,AC-2(1),AC-2(2),AC-2(3),AC-2(4),AC-2(7),PS-4,PS-5,SC-30;CUSTOM WEB APP,STORAGE AS SERVICE,IDM
CAIQ 3.0.1;IAM-11.2;Is any change in user access status intended to include termination of employment, contract or agreement, change of employment or transfer within the organization?;AC-2,AC-2(1),AC-2(2),AC-2(3),AC-2(4),AC-2(7),AU-6,AU-6(1),AU-6(3),PS-6,PS-7;CUSTOM WEB APP,STORAGE AS SERVICE,IDM
CAIQ 3.0.1;IAM-12.1;Do you support use of, or integration with, existing customer-based Single Sign On(SSO) solutions to your service?;AC-1,AC-2,AC-3,AC-11,AC-11(1),AU-2,AU-2(3),AU-2(4),AU-11,IA-1,IA-2,IA-2(1),IA-2(2),IA-2(3),IA-2(8),IA-5,IA-5(1),IA-5(2),IA-5(3),IA-5(6),IA-5(7),IA-6,IA-8,SC-10;CUSTOM WEB APP,STORAGE AS SERVICE,IDM
CAIQ 3.0.1;IAM-12.2;Do you use open standards to delegate authentication capabilities to your tenants?;AC-1,AC-2,AC-3,AC-11,AC-11(1),AU-2,AU-2(3),AU-2(4),AU-11,IA-1,IA-2,IA-2(1),IA-2(2),IA-2(3),IA-2(8),IA-5,IA-5(1),IA-5(2),IA-5(3),IA-5(6),IA-5(7),IA-6,IA-8,SC-10;CUSTOM WEB APP,STORAGE AS SERVICE,IDM
CAIQ 3.0.1;IAM-12.3;Do you support identity federation standards(SAML, SPML, WS-Federation, etc.) as a means of authenticating/authorizing users?;AC-1,AC-2,AC-3,AC-11,AC-11(1),AU-2,AU-2(3),AU-2(4),AU-11,IA-1,IA-2,IA-2(1),IA-2(2),IA-2(3),IA-2(8),IA-5,IA-5(1),IA-5(2),IA-5(3),IA-5(6),IA-5(7),IA-6,IA-8,SC-10;CUSTOM WEB APP,STORAGE AS SERVICE,IDM
CAIQ 3.0.1;IAM-12.4;Do you have a Policy Enforcement Point capability(e.g., XACML) to enforce regional legal and policy constraints on user access?;AC-1,AC-2,AC-3,AC-11,AC-11(1),AU-2,AU-2(3),AU-2(4),AU-11,IA-1,IA-2,IA-2(1),IA-2(2),IA-2(3),IA-2(8),IA-5,IA-5(1),IA-5(2),IA-5(3),IA-5(6),IA-5(7),IA-6,IA-8,SC-10;CUSTOM WEB APP,STORAGE AS SERVICE,IDM
CAIQ 3.0.1;IAM-12.5;Do you have an identity management system(enabling classification of data for a tenant) in place to enable both role-based and context-based entitlement to data?;AC-1,AC-2,AC-3,AC-11,AC-11(1),AU-2,AU-2(3),AU-2(4),AU-11,IA-1,IA-2,IA-2(1),IA-2(2),IA-2(3),IA-2(8),IA-5,IA-5(1),IA-5(2),IA-5(3),IA-5(6),IA-5(7),IA-6,IA-8,SC-10;CUSTOM WEB APP,STORAGE AS SERVICE,IDM
CAIQ 3.0.1;IAM-12.6;Do you provide tenants with strong(multifactor) authentication options(digital certs, tokens, biometrics, etc.) for user access?;AC-1,AC-2,AC-3,AC-11,AC-11(1),AU-2,AU-2(3),AU-2(4),AU-11,IA-1,IA-2,IA-2(1),IA-2(2),IA-2(3),IA-2(8),IA-5,IA-5(1),IA-5(2),IA-5(3),IA-5(6),IA-5(7),IA-6,IA-8,SC-10;CUSTOM WEB APP,STORAGE AS SERVICE,IDM
CAIQ 3.0.1;IAM-12.7;Do you allow tenants to use third-party identity assurance services?;AC-1,AC-2,AC-3,AC-11,AC-11(1),AU-2,AU-2(3),AU-2(4),AU-11,IA-1,IA-2,IA-2(1),IA-2(2),IA-2(3),IA-2(8),IA-5,IA-5(1),IA-5(2),IA-5(3),IA-5(6),IA-5(7),IA-6,IA-8,SC-10;CUSTOM WEB APP,STORAGE AS SERVICE,IDM
CAIQ 3.0.1;IAM-12.8;Do you support password(minimum length, age, history, complexity) and account lockout(lockout threshold, lockout duration) policy enforcement?;AC-1,AC-2,AC-3,AC-11,AC-11(1),AU-2,AU-2(3),AU-2(4),AU-11,IA-1,IA-2,IA-2(1),IA-2(2),IA-2(3),IA-2(8),IA-5,IA-5(1),IA-5(2),IA-5(3),IA-5(6),IA-5(7),IA-6,IA-8,SC-10;CUSTOM WEB APP,STORAGE AS SERVICE,IDM
CAIQ 3.0.1;IAM-12.9;Do you allow tenants/customers to define password and account lockout policies for their accounts?;AC-1,AC-2,AC-3,AC-11,AC-11(1),AU-2,AU-2(3),AU-2(4),AU-11,IA-1,IA-2,IA-2(1),IA-2(2),IA-2(3),IA-2(8),IA-5,IA-5(1),IA-5(2),IA-5(3),IA-5(6),IA-5(7),IA-6,IA-8,SC-10;CUSTOM WEB APP,STORAGE AS SERVICE,IDM
CAIQ 3.0.1;IAM-12.10;Do you support the ability to force password changes upon first logon?;AC-1,AC-2,AC-3,AC-11,AC-11(1),AU-2,AU-2(3),AU-2(4),AU-11,IA-1,IA-2,IA-2(1),IA-2(2),IA-2(3),IA-2(8),IA-5,IA-5(1),IA-5(2),IA-5(3),IA-5(6),IA-5(7),IA-6,IA-8,SC-10;CUSTOM WEB APP,STORAGE AS SERVICE,IDM
CAIQ 3.0.1;IAM-12.11;Do you have mechanisms in place for unlocking accounts that have been locked out(e.g., self-service via email, defined challenge questions, manual unlock)?;AC-1,AC-2,AC-3,AC-11,AC-11(1),AU-2,AU-2(3),AU-2(4),AU-11,IA-1,IA-2,IA-2(1),IA-2(2),IA-2(3),IA-2(8),IA-5,IA-5(1),IA-5(2),IA-5(3),IA-5(6),IA-5(7),IA-6,IA-8,SC-10;CUSTOM WEB APP,STORAGE AS SERVICE,IDM
CAIQ 3.0.1;IAM-13.1;Are utilities that can significantly manage virtualized partitions(e.g., shutdown, clone, etc.) appropriately restricted and monitored?;AC-6,AC-6(1),AC-6(2),CM-7,CM-7(1);CUSTOM WEB APP,STORAGE AS SERVICE,IDM
CAIQ 3.0.1;IAM-13.2;Do you have a capability to detect attacks that target the virtual infrastructure directly(e.g., shimming, Blue Pill, Hyper jumping, etc.)?;AC-6,AC-6(1),AC-6(2),CM-7,CM-7(1);CUSTOM WEB APP,STORAGE AS SERVICE,IDM
CAIQ 3.0.1;IAM-13.3;Are attacks that target the virtual infrastructure prevented with technical controls?;AC-6,AC-6(1),AC-6(2),CM-7,CM-7(1);CUSTOM WEB APP,STORAGE AS SERVICE,IDM
CAIQ 3.0.1;IVS-01.1;Are file integrity(host) and network intrusion detection(IDS) tools implemented to help facilitate timely detection, investigation by root cause analysis and response to incidents?;AU-1,AU-8,AU-8(1);CUSTOM WEB APP,STORAGE AS SERVICE,IDM
CAIQ 3.0.1;IVS-01.2;Is physical and logical user access to audit logs restricted to authorized personnel?;AU-1,AU-8,AU-8(1);CUSTOM WEB APP,STORAGE AS SERVICE,IDM
CAIQ 3.0.1;IVS-01.3;Can you provide evidence that due diligence mapping of regulations and standards to your controls/architecture/processes has been done?;AU-1,AU-8,AU-8(1);CUSTOM WEB APP,STORAGE AS SERVICE,IDM
CAIQ 3.0.1;IVS-01.4;Are audit logs centrally stored and retained?;AU-1,AU-8,AU-8(1);CUSTOM WEB APP,STORAGE AS SERVICE,IDM
CAIQ 3.0.1;IVS-01.5;Are audit logs reviewed on a regular basis for security events(e.g., with automated tools)?;AU-1,AU-8,AU-8(1);CUSTOM WEB APP,STORAGE AS SERVICE,IDM
CAIQ 3.0.1;IVS-03.1;Do you use a synchronized time-service protocol(e.g., NTP) to ensure all systems have a common time reference?;AU-1,AU-8,AU-8(1);CUSTOM WEB APP,STORAGE AS SERVICE,IDM
CAIQ 3.0.1;IVS-04.1;Do you provide documentation regarding what levels of system(network, storage, memory, I/O, etc.) oversubscription you maintain and under what circumstances/scenarios?;SA-4,SA-4(1),SA-4(4),SA-4(7);CUSTOM WEB APP,STORAGE AS SERVICE,IDM
CAIQ 3.0.1;IVS-04.2;Do you restrict use of the memory oversubscription capabilities present in the hypervisor?;SA-4,SA-4(1),SA-4(4),SA-4(7);CUSTOM WEB APP,STORAGE AS SERVICE,IDM
CAIQ 3.0.1;IVS-04.3;Do your system capacity requirements take into account current, projected and anticipated capacity needs for all systems used to provide services to the tenants?;SA-4,SA-4(1),SA-4(4),SA-4(7);CUSTOM WEB APP,STORAGE AS SERVICE,IDM
CAIQ 3.0.1;IVS-04.4;Is system performance monitored and tuned in order to continuously meet regulatory, contractual and business requirements for all the systems used to provide services to the tenants?;SA-4,SA-4(1),SA-4(4),SA-4(7);CUSTOM WEB APP,STORAGE AS SERVICE,IDM
CAIQ 3.0.1;IVS-06.1;For your IaaS offering, do you provide customers with guidance on how to create a layered security architecture equivalence using your virtualized solution?;CM-7,CM-7(1),SC-7,SC-7(1),SC-7(2),SC-7(3),SC-7(4),SC-7(5),SC-7(7),SC-7(8),SC-7(12),SC-7(13),SC-7(18),SC-20(1),SC-21,SC-22,SC-30,SC-32;CUSTOM WEB APP,STORAGE AS SERVICE,IDM
CAIQ 3.0.1;IVS-06.2;Do you regularly update network architecture diagrams that include data flows between security domains/zones?;CM-7,CM-7(1),SC-7,SC-7(1),SC-7(2),SC-7(3),SC-7(4),SC-7(5),SC-7(7),SC-7(8),SC-7(12),SC-7(13),SC-7(18),SC-20(1),SC-21,SC-22,SC-30,SC-32;CUSTOM WEB APP,STORAGE AS SERVICE,IDM
CAIQ 3.0.1;IVS-06.3;Do you regularly review for appropriateness the allowed access/connectivity(e.g., firewall rules) between security domains/zones within the network?;CM-7,CM-7(1),SC-7,SC-7(1),SC-7(2),SC-7(3),SC-7(4),SC-7(5),SC-7(7),SC-7(8),SC-7(12),SC-7(13),SC-7(18),SC-20(1),SC-21,SC-22,SC-30,SC-32;CUSTOM WEB APP,STORAGE AS SERVICE,IDM
CAIQ 3.0.1;IVS-06.4;Are all firewall access control lists documented with business justification?;CM-7,CM-7(1),SC-7,SC-7(1),SC-7(2),SC-7(3),SC-7(4),SC-7(5),SC-7(7),SC-7(8),SC-7(12),SC-7(13),SC-7(18),SC-20(1),SC-21,SC-22,SC-30,SC-32;CUSTOM WEB APP,STORAGE AS SERVICE,IDM
CAIQ 3.0.1;IVS-08.1;For your SaaS or PaaS offering, do you provide tenants with separate environments for production and test processes?;SC-2;CUSTOM WEB APP,STORAGE AS SERVICE,IDM
CAIQ 3.0.1;IVS-08.2;For your IaaS offering, do you provide tenants with guidance on how to create suitable production and test environments?;SC-2;CUSTOM WEB APP,STORAGE AS SERVICE,IDM
CAIQ 3.0.1;IVS-08.3;Do you logically and physically segregate production and non-production environments?;SC-2;CUSTOM WEB APP,STORAGE AS SERVICE,IDM
CAIQ 3.0.1;IVS-09.1;Are system and network environments protected by a firewall or virtual firewall to ensure business and customer security requirements?;AC-4,SC-2,SC-7,SC-7(1),SC-7(2),SC-7(3),SC-7(4),SC-7(5),SC-7(7),SC-7(8),SC-7(12),SC-7(13),SC-7(18);CUSTOM WEB APP,STORAGE AS SERVICE,IDM
CAIQ 3.0.1;IVS-09.2;Are system and network environments protected by a firewall or virtual firewall to ensure compliance with legislative, regulatory and contractual requirements?;AC-4,SC-2,SC-7,SC-7(1),SC-7(2),SC-7(3),SC-7(4),SC-7(5),SC-7(7),SC-7(8),SC-7(12),SC-7(13),SC-7(18);CUSTOM WEB APP,STORAGE AS SERVICE,IDM
CAIQ 3.0.1;IVS-09.3;Are system and network environments protected by a firewall or virtual firewall to ensure separation of production and non-production environments?;AC-4,SC-2,SC-7,SC-7(1),SC-7(2),SC-7(3),SC-7(4),SC-7(5),SC-7(7),SC-7(8),SC-7(12),SC-7(13),SC-7(18);CUSTOM WEB APP,STORAGE AS SERVICE,IDM
CAIQ 3.0.1;IVS-09.4;Are system and network environments protected by a firewall or virtual firewall to ensure protection and isolation of sensitive data?;AC-4,SC-2,SC-7,SC-7(1),SC-7(2),SC-7(3),SC-7(4),SC-7(5),SC-7(7),SC-7(8),SC-7(12),SC-7(13),SC-7(18);CUSTOM WEB APP,STORAGE AS SERVICE,IDM
CAIQ 3.0.1;IVS-12.1;Are policies and procedures established and mechanisms configured and implemented to protect the wireless network environment perimeter and to restrict unauthorized wireless traffic?;AC-1,AC-18,AC-18(1),AC-18(2),CM-6,CM-6(1),CM-6(3),PE-4,SC-7,SC-7(1),SC-7(2),SC-7(3),SC-7(4),SC-7(5),SC-7(7),SC-7(8),SC-7(12),SC-7(13),SC-7(18);CUSTOM WEB APP,STORAGE AS SERVICE,IDM
CAIQ 3.0.1;IVS-12.2;Are policies and procedures established and mechanisms implemented to ensure wireless security settings are enabled with strong encryption for authentication and transmission, replacing vendor default settings?(e.g., encryption keys, passwords, SNMP community strings);AC-1,AC-18,AC-18(1),AC-18(2),CM-6,CM-6(1),CM-6(3),PE-4,SC-7,SC-7(1),SC-7(2),SC-7(3),SC-7(4),SC-7(5),SC-7(7),SC-7(8),SC-7(12),SC-7(13),SC-7(18);CUSTOM WEB APP,STORAGE AS SERVICE,IDM
CAIQ 3.0.1;IVS-12.3;Are policies and procedures established and mechanisms implemented to protect wireless network environments and detect the presence of unauthorized(rogue) network devices for a timely disconnect from the network?;AC-1,AC-18,AC-18(1),AC-18(2),CM-6,CM-6(1),CM-6(3),PE-4,SC-7,SC-7(1),SC-7(2),SC-7(3),SC-7(4),SC-7(5),SC-7(7),SC-7(8),SC-7(12),SC-7(13),SC-7(18);CUSTOM WEB APP,STORAGE AS SERVICE,IDM
CAIQ 3.0.1;IVS-13.1;Do your network architecture diagrams clearly identify high-risk environments and data flows that may have legal compliance impacts?;CM-7,CM-7(1),SC-7,SC-7(1),SC-7(2),SC-7(3),SC-7(4),SC-7(5),SC-7(7),SC-7(8),SC-7(12),SC-7(13),SC-7(18),SC-20(1),SC-21,SC-22,SC-30,SC-32;CUSTOM WEB APP,STORAGE AS SERVICE,IDM
CAIQ 3.0.1;IVS-13.2;Do you implement technical measures and apply defense-in-depth techniques(e.g., deep packet analysis, traffic throttling and black-holing) for detection and timely response to network-based attacks associated with anomalous ingress or egress traffic patterns(e.g., MAC spoofing and ARP poisoning attacks) and/or distributed denial-of-service(DDoS) attacks?;CM-7,CM-7(1),SC-7,SC-7(1),SC-7(2),SC-7(3),SC-7(4),SC-7(5),SC-7(7),SC-7(8),SC-7(12),SC-7(13),SC-7(18),SC-20(1),SC-21,SC-22,SC-30,SC-32;CUSTOM WEB APP,STORAGE AS SERVICE,IDM
CAIQ 3.0.1;SEF-02.1;Do you have a documented security incident response plan?;IR-1,IR-2,IR-3,IR-4,IR-4(1),IR-5,IR-7,IR-7(1),IR-7(2),IR-8;CUSTOM WEB APP,STORAGE AS SERVICE,IDM
CAIQ 3.0.1;SEF-02.2;Do you integrate customized tenant requirements into your security incident response plans?;IR-1,IR-2,IR-3,IR-4,IR-4(1),IR-5,IR-7,IR-7(1),IR-7(2),IR-8;CUSTOM WEB APP,STORAGE AS SERVICE,IDM
CAIQ 3.0.1;SEF-02.3;Do you publish a roles and responsibilities document specifying what you vs. your tenants are responsible for during security incidents?;IR-1,IR-2,IR-3,IR-4,IR-4(1),IR-5,IR-7,IR-7(1),IR-7(2),IR-8;CUSTOM WEB APP,STORAGE AS SERVICE,IDM
CAIQ 3.0.1;SEF-02.4;Have you tested your security incident response plans in the last year?;IR-1,IR-2,IR-3,IR-4,IR-4(1),IR-5,IR-7,IR-7(1),IR-7(2),IR-8;CUSTOM WEB APP,STORAGE AS SERVICE,IDM
CAIQ 3.0.1;SEF-03.1;Does your security information and event management(SIEM) system merge data sources(app logs, firewall logs, IDS logs, physical access logs, etc.) for granular analysis and alerting?;IR-2,IR-6,IR-6(1),IR-7,IR-7(1),IR-7(2),SI-4,SI-4(2),SI-4(4),SI-4(5),SI-4(6),SI-5;CUSTOM WEB APP,STORAGE AS SERVICE,IDM
CAIQ 3.0.1;SEF-03.2;Does your logging and monitoring framework allow isolation of an incident to specific tenants?;IR-2,IR-6,IR-6(1),IR-7,IR-7(1),IR-7(2),SI-4,SI-4(2),SI-4(4),SI-4(5),SI-4(6),SI-5;CUSTOM WEB APP,STORAGE AS SERVICE,IDM
CAIQ 3.0.1;SEF-04.1;Does your incident response plan comply with industry standards for legally admissible chain-of-custody management processes and controls?;AU-6,AU-6(1),AU-6(3),AU-7,AU-7(1),AU-9,AU-9(2),AU-10,AU-10(5),AU-11,IR-5,IR-7,IR-7(1),IR-7(2),IR-8,MP-5,MP-5(2),MP-5(4);CUSTOM WEB APP,STORAGE AS SERVICE,IDM
CAIQ 3.0.1;SEF-04.2;Does your incident response capability include the use of legally admissible forensic data collection and analysis techniques?;AU-6,AU-6(1),AU-6(3),AU-7,AU-7(1),AU-9,AU-9(2),AU-10,AU-10(5),AU-11,IR-5,IR-7,IR-7(1),IR-7(2),IR-8,MP-5,MP-5(2),MP-5(4);CUSTOM WEB APP,STORAGE AS SERVICE,IDM
CAIQ 3.0.1;SEF-04.3;Are you capable of supporting litigation holds(freeze of data from a specific point in time) for a specific tenant without freezing other tenant data?;AU-6,AU-6(1),AU-6(3),AU-7,AU-7(1),AU-9,AU-9(2),AU-10,AU-10(5),AU-11,IR-5,IR-7,IR-7(1),IR-7(2),IR-8,MP-5,MP-5(2),MP-5(4);CUSTOM WEB APP,STORAGE AS SERVICE,IDM
CAIQ 3.0.1;SEF-04.4;Do you enforce and attest to tenant data separation when producing data in response to legal subpoenas?;AU-6,AU-6(1),AU-6(3),AU-7,AU-7(1),AU-9,AU-9(2),AU-10,AU-10(5),AU-11,IR-5,IR-7,IR-7(1),IR-7(2),IR-8,MP-5,MP-5(2),MP-5(4);CUSTOM WEB APP,STORAGE AS SERVICE,IDM
CAIQ 3.0.1;SEF-05.1;Do you monitor and quantify the types, volumes and impacts on all information security incidents?;IR-4,IR-4(1),IR-5,IR-8;CUSTOM WEB APP,STORAGE AS SERVICE,IDM
CAIQ 3.0.1;SEF-05.2;Will you share statistical information for security incident data with your tenants upon request?;IR-4,IR-4(1),IR-5,IR-8;CUSTOM WEB APP,STORAGE AS SERVICE,IDM
CAIQ 3.0.1;STA-03.1;Do you collect capacity and use data for all relevant components of your cloud service offering?;CA-3,CP-6,CP-6(1),CP-6(3),CP-7,CP-7(1),CP-7(2),CP-7(3),CP-7(5),CP-8,CP-8(1),CP-8(2),SA-9,SA-9(1),SC-30;CUSTOM WEB APP,STORAGE AS SERVICE,IDM
CAIQ 3.0.1;STA-03.2;Do you provide tenants with capacity planning and use reports?;CA-3,CP-6,CP-6(1),CP-6(3),CP-7,CP-7(1),CP-7(2),CP-7(3),CP-7(5),CP-8,CP-8(1),CP-8(2),SA-9,SA-9(1),SC-30;CUSTOM WEB APP,STORAGE AS SERVICE,IDM
CAIQ 3.0.1;STA-05.1;Do you select and monitor outsourced providers in compliance with laws in the country where the data is processed, stored and transmitted?;CA-3,MP-5,MP-5(2),MP-5(4),PS-7,SA-6,SA-7,SA-9,SA-9(1);CUSTOM WEB APP,STORAGE AS SERVICE,IDM
CAIQ 3.0.1;STA-05.2;Do you select and monitor outsourced providers in compliance with laws in the country where the data originates?;CA-3,MP-5,MP-5(2),MP-5(4),PS-7,SA-6,SA-7,SA-9,SA-9(1);CUSTOM WEB APP,STORAGE AS SERVICE,IDM
CAIQ 3.0.1;STA-05.3;Does legal counsel review all third-party agreements?;CA-3,MP-5,MP-5(2),MP-5(4),PS-7,SA-6,SA-7,SA-9,SA-9(1);CUSTOM WEB APP,STORAGE AS SERVICE,IDM
CAIQ 3.0.1;STA-05.4;Do third-party agreements include provision for the security and protection of information and assets?;CA-3,MP-5,MP-5(2),MP-5(4),PS-7,SA-6,SA-7,SA-9,SA-9(1);CUSTOM WEB APP,STORAGE AS SERVICE,IDM
CAIQ 3.0.1;STA-05.5;Do you provide the client with a list and copies of all subprocessing agreements and keep this updated?;CA-3,MP-5,MP-5(2),MP-5(4),PS-7,SA-6,SA-7,SA-9,SA-9(1);CUSTOM WEB APP,STORAGE AS SERVICE,IDM
CAIQ 3.0.1;STA-09.1;Do you permit tenants to perform independent vulnerability assessments?;AC-1,AT-1,AU-1,CA-1,CM-1,CP-1,IA-1,IA-7,IR-1,MA-1,MP-1,PE-1,PL-1,PS-1,RA-1,RA-2,SA-1,SA-6,SC-1,SC-13,SC-13(1),SC-30,SI-1;CUSTOM WEB APP,STORAGE AS SERVICE,IDM
CAIQ 3.0.1;STA-09.2;Do you have external third party services conduct vulnerability scans and periodic penetration tests on your applications and networks?;AC-1,AT-1,AU-1,CA-1,CM-1,CP-1,IA-1,IA-7,IR-1,MA-1,MP-1,PE-1,PL-1,PS-1,RA-1,RA-2,SA-1,SA-6,SC-1,SC-13,SC-13(1),SC-30,SI-1;CUSTOM WEB APP,STORAGE AS SERVICE,IDM
CAIQ 3.0.1;TVM-01.1;Do you have anti-malware programs that support or connect to your cloud service offerings installed on all of your systems?;SC-5,SI-3,SI-3(1),SI-3(2),SI-3(3),SI-5,SI-7,SI-7(1),SI-8;CUSTOM WEB APP,STORAGE AS SERVICE,IDM
CAIQ 3.0.1;TVM-01.2;Do you ensure that security threat detection systems using signatures, lists or behavioral patterns are updated across all infrastructure components within industry accepted time frames?;SC-5,SI-3,SI-3(1),SI-3(2),SI-3(3),SI-5,SI-7,SI-7(1),SI-8;CUSTOM WEB APP,STORAGE AS SERVICE,IDM
CAIQ 3.0.1;TVM-02.1;Do you conduct network-layer vulnerability scans regularly as prescribed by industry best practices?;CM-3,CM-3(2),CM-4,RA-5,RA-5(1),RA-5(2),RA-5(3),RA-5(6),RA-5(9),SC-30,SI-1,SI-2,SI-2(2),SI-4,SI-5;CUSTOM WEB APP,STORAGE AS SERVICE,IDM
CAIQ 3.0.1;TVM-02.2;Do you conduct application-layer vulnerability scans regularly as prescribed by industry best practices?;CM-3,CM-3(2),CM-4,RA-5,RA-5(1),RA-5(2),RA-5(3),RA-5(6),RA-5(9),SC-30,SI-1,SI-2,SI-2(2),SI-4,SI-5;CUSTOM WEB APP,STORAGE AS SERVICE,IDM
CAIQ 3.0.1;TVM-02.3;Do you conduct local operating system-layer vulnerability scans regularly as prescribed by industry best practices?;CM-3,CM-3(2),CM-4,RA-5,RA-5(1),RA-5(2),RA-5(3),RA-5(6),RA-5(9),SC-30,SI-1,SI-2,SI-2(2),SI-4,SI-5;CUSTOM WEB APP,STORAGE AS SERVICE,IDM
CAIQ 3.0.1;TVM-02.4;Will you make the results of vulnerability scans available to tenants at their request?;CM-3,CM-3(2),CM-4,RA-5,RA-5(1),RA-5(2),RA-5(3),RA-5(6),RA-5(9),SC-30,SI-1,SI-2,SI-2(2),SI-4,SI-5;CUSTOM WEB APP,STORAGE AS SERVICE,IDM
CAIQ 3.0.1;TVM-02.5;Do you have a capability to rapidly patch vulnerabilities across all of your computing devices, applications and systems?;CM-3,CM-3(2),CM-4,RA-5,RA-5(1),RA-5(2),RA-5(3),RA-5(6),RA-5(9),SC-30,SI-1,SI-2,SI-2(2),SI-4,SI-5;CUSTOM WEB APP,STORAGE AS SERVICE,IDM
CAIQ 3.0.1;TVM-02.6;Will you provide your risk-based systems patching time frames to your tenants upon request?;CM-3,CM-3(2),CM-4,RA-5,RA-5(1),RA-5(2),RA-5(3),RA-5(6),RA-5(9),SC-30,SI-1,SI-2,SI-2(2),SI-4,SI-5;CUSTOM WEB APP,STORAGE AS SERVICE,IDM
Berkley DB best practices;DB1;Is the physical machine hosting a database housed in a secured, locked and monitored environment to prevent unauthorized entry, access or theft?;PE-1,PE-2,PE-3,PE-6;STORAGE AS SERVICE
Berkley DB best practices;DB2;Are the application and web servers hosted on different machines as the database server?;SC-3;STORAGE AS SERVICE
Berkley DB best practices;DB3;Is the database server located behind a firewall with default rules to deny all traffic?;SC-7;STORAGE AS SERVICE
Berkley DB best practices;DB4;Is the database server firewall opened only to specific application or web servers, and is direct client access not allowed by firewall rules? If the development environment cannot meet this requirement, is restricted data stored out of the development database server with mock data made up for development?;SC-7,AC-4;STORAGE AS SERVICE
Berkley DB best practices;DB5;Are firewall rule change control procedures in place and are notification of rule changes distributed to System Administrators (SAs) and Database Administrators (DBAs)?;AC-5,CM-3;STORAGE AS SERVICE
Berkley DB best practices;DB6;Are firewall rules for database servers  maintained and reviewed on a regular basis by SAs and DBAs?;AC-1;STORAGE AS SERVICE
Berkley DB best practices;DB7;Are machine hardening and firewall rules regularly tested via network scans?;SI-6;STORAGE AS SERVICE
Berkley DB best practices;DB8;Is the database software version currently supported by the vendor or open source project?;SI-2(6);STORAGE AS SERVICE
Berkley DB best practices;DB9;Are all unused or unnecessary services or functions of the database removed or turned off.;CM-7;STORAGE AS SERVICE
Berkley DB best practices;DB10;Are unneeded default accounts removed, or else are passwords changed from defaults?;AC-2;STORAGE AS SERVICE
Berkley DB best practices;DB11;Are null passwords avoided, and temporary files from the install process that may contain passwords removed?;IA-5;STORAGE AS SERVICE
Berkley DB best practices;DB12;Is database software patched timely to include all current security patches? ;SI-2(5);STORAGE AS SERVICE
Berkley DB best practices;DB13;Are destination systems (application/web servers) receiving restricted data secured in a manner commensurate with the security measures on the originating system? ;SC-28;STORAGE AS SERVICE
Berkley DB best practices;DB14;Are all servers, applications and tools that access the database documented?;SA-5;STORAGE AS SERVICE
Berkley DB best practices;DB15;Are configuration files and source code locked down and only accessible to required OS accounts?;AC-1;STORAGE AS SERVICE
Berkley DB best practices;DB16;Is application code reviewed for SQL injection vulnerabilities?;SA-11;STORAGE AS SERVICE
Berkley DB best practices;DB17;"Is any ""Spyware"" removed from the application, web or database servers?";SI-3;STORAGE AS SERVICE
Berkley DB best practices;DB18;If users are allowed restricted data on their workstations, is the workstation protected against unauthorized access to a session by deploying screen savers? Are users taught to lock their workstations when leaving the station?;AC-11;STORAGE AS SERVICE
Berkley DB best practices;DB19;If users are allowed restricted data on their workstations, do the workstation require an individual login and password?;AC-1,AC-2,AC-3;STORAGE AS SERVICE
Berkley DB best practices;DB20;If users are allowed restricted data on their workstations, is restricted data on the client workstation encrypted by the workstations operating system?;SC-28;STORAGE AS SERVICE
Berkley DB best practices;DB21;Is it denied to store restricted data on transportable devices?;AC-19;STORAGE AS SERVICE
Berkley DB best practices;DB22;Is it denied to send restricted data via email, either in the body or as an attachment, by either users or as an automated part of the system?;SC-1;STORAGE AS SERVICE
Berkley DB best practices;DB23;Is restricted data that is no longer needed routinely deleted?;SI-12;STORAGE AS SERVICE
Berkley DB best practices;DB24;"If users are allowed restricted data on their workstations, is it any ""Spyware"" removed from the client workstations?";SI-3;STORAGE AS SERVICE
Berkley DB best practices;DB25;Do DB administrators review all requested script and database changes to ensure the security of the system is not compromised?;CM-5;STORAGE AS SERVICE
Berkley DB best practices;DB26;Are accounts with system administration capabilities  provided to as few individuals as is practical, and only as needed to support the application?;AC-6;STORAGE AS SERVICE
Berkley DB best practices;DB27;Do all Developers, Vendors, SAs, DBAs & Contractors have signed a non-disclosure agreement?;PS-6;STORAGE AS SERVICE
Berkley DB best practices;DB28;Are operating system accounts used by DBA staff to login to dataserver machines for administrative duties individual accounts, and not a shared group account?;AC-2(9);STORAGE AS SERVICE
Berkley DB best practices;DB29;If possible, is the daemon OS account that is required to run the dataserver process prevented from direct login?;AC-1,AC-2,AC-3;STORAGE AS SERVICE
Berkley DB best practices;DB30;Are database accounts used by DBA staff for administrative duties individual accounts, and not a shared group account?;AC-2(9);STORAGE AS SERVICE
Berkley DB best practices;DB31;Are passwords for all DBA operating system accounts and database accounts strong passwords, and are they changed when administrators/contractors leave positions?;IA-5;STORAGE AS SERVICE
Berkley DB best practices;DB32;If the DBA and developer roles are being filled by a single person, are changes approved by the Data Proprietor?;AC-5;STORAGE AS SERVICE
Berkley DB best practices;DB33;Is secure authentication used for the database?;IA-1;STORAGE AS SERVICE
Berkley DB best practices;DB34;Is the procedure for provisioning and reviewing access to the database documented?;AC-1;STORAGE AS SERVICE
Berkley DB best practices;DB35;Is database access granted only to authorized users?;AC-1,AC-2,AC-3;STORAGE AS SERVICE
Berkley DB best practices;DB36;Are users granted the minimal permissions necessary for their job function in the database? Are permissions  managed through roles or groups, and not by direct grants to user IDs where possible?   ;AC-6,AC-2(7);STORAGE AS SERVICE
Berkley DB best practices;DB37;Are strong passwords in the database  enforced when technically possible, and database passwords  encrypted when stored in the database or transmitted over the network?  ;IA-5,IA-5(6);STORAGE AS SERVICE
Berkley DB best practices;DB38;Do applications require individual database login/password and roles/grants when possible? When not possible, are application accounts utilized?;AC-1;STORAGE AS SERVICE
Berkley DB best practices;DB39;Do applications manage user permissions and auditing to meet the Data Proprietors requirements?   ;IA-1,AC-1;STORAGE AS SERVICE
Berkley DB best practices;DB40;Do user database objects with restricted data have NOT public grants when possible?   ;AC-1;STORAGE AS SERVICE
Berkley DB best practices;DB41;Are Database accounts locked after a maximum number of failed logins?;AC-7;STORAGE AS SERVICE
Berkley DB best practices;DB42;Are procedure to address inactive users documented and approved by the Data Proprietor?;AC-2;STORAGE AS SERVICE
Berkley DB best practices;DB43;Is a report of elevated database permissions provided to the data proprietor by the DBAs on a periodic basis?;AU-6;STORAGE AS SERVICE
Berkley DB best practices;DB44;Is a  report of all access rights for users provided to the data proprietor by the DBAs on a regular basis? (Twice a year is the recommended interval);AU-6;STORAGE AS SERVICE
Berkley DB best practices;DB45;Is only the restricted data required for the business function kept within the database? When possible, is historical information purged when no longer required?;CM-7;STORAGE AS SERVICE
Berkley DB best practices;DB46;Are hashing functions applied to restricted data elements before storing if the data is only required for matching purposes? If possible, is restricted data kept separated from personally identifiable information and kept offline until needed?;SC-28(2),SC-28;STORAGE AS SERVICE
Berkley DB best practices;DB47;Is restricted data in non-production environments held to the same security standards as production systems?If not, is data in these non-production environments encrypted using industry-standard algorithms, or else is test data made available for these systems?;SC-28;STORAGE AS SERVICE
Berkley DB best practices;DB48;Is restricted data never used as a key in a table?;SC-28;STORAGE AS SERVICE
Berkley DB best practices;DB49;Are change management procedures documented and do they meet the data proprietors requirements?  ;CM-3, CM-5;STORAGE AS SERVICE
Berkley DB best practices;DB50;Are change management controls in place to log all changes to the production database? ;CM-3, CM-5;STORAGE AS SERVICE
Berkley DB best practices;DB51;Are all programs scheduled to run against the database which read or modify production data  documented?;SA-5;STORAGE AS SERVICE
Berkley DB best practices;DB52;Are all logins to operating system and database servers, successful or unsuccessful, logged? Are these logs  retained for at least one year?;AU-2,AU-11;STORAGE AS SERVICE
Berkley DB best practices;DB53;Do database objects with restricted data have auditing turned on?;AU-2;STORAGE AS SERVICE
Berkley DB best practices;DB54;Are audit logs regularly reviewed by knowledgeable and independent individuals appointed by the data proprietor to meet the data proprietors requirements?;AU-6;STORAGE AS SERVICE
Berkley DB best practices;DB55;Is the security administrator notified when accounts are locked due to maximum database login failures?;SI-4(5);STORAGE AS SERVICE
Berkley DB best practices;DB56;Are backup and recovery procedures  documented and do they meet data proprietors requirements? ;CP-9;STORAGE AS SERVICE
Berkley DB best practices;DB57;Are backup and recovery procedures  periodically tested?;CP-9(1);STORAGE AS SERVICE
Berkley DB best practices;DB58;Are backup retention intervals  documented and sufficient to meet the business resumption requirements and expectations of the data proprietor?;SI-12;STORAGE AS SERVICE
Berkley DB best practices;DB59;Is restricted data encrypted during transmission over the network using encryption measures strong enough to minimize the risk of the datas exposure if intercepted or misrouted from database to client workstation?;SC-8;STORAGE AS SERVICE
Berkley DB best practices;DB60;If database-level encryption for restricted data is implemented, are procedures for secure key management documented?;SC-12;STORAGE AS SERVICE
Berkley DB best practices;DB61;For data subject to disclosure that is encrypted at storage, are the means to decrypt available to more than one person and approved by the data proprietor?;SC-12;STORAGE AS SERVICE
Berkley DB best practices;DB62;Are key management procedures for decrypting backups  documented, available to more than one person and approved by the data proprietor?;SC-12;STORAGE AS SERVICE