DATA_AV;CP-6,CP-9,CP-10,IR-4,SC-5,SC-6,SI-13
SERVICE_AV;CP-7,CP-10,IR-4,SC-5,SC-6,SI-13
COMPENSATORY_COST;IR-4
AVG_COMPENSATORY_COST;IR-4,IR-5
INCIDENTS_COST;SI-4,IR-4,IR-5
AVG_INCIDENT_COST;SI-4,IR-4,IR-5
AVG_INCIDENT_RECOV_COST;IR-4,IR-8
AVG_PATCH_COST;SI-2
INFR_DATA_LOCATION;CP-6,SC-32,SA-9(5)
RES_UTILIZATION_EFF;SC-6
DATA_WS_ON;CP-2(4),CP-2(6),CP-6(1),CP-9,CP-9(6),CP-10,SI-7,SI-7(1),SI-7(2),SI-7(5)
DATA_RF_ON;CP-2(4),CP-2(6),CP-6(1),CP-9,CP-9(6),CP-10,SI-7,SI-7(1),SI-7(2),SI-7(5)
FWSEC_ON;SC-12,SC-23
HSTS_ON;SC-43
HTTPS_ON;SC-8
SEC_COOKIES_ON;SC-29
CERT_PIN_ON;SC-17
VULN_SCAN_FREQ;CA-7,RA-5
VULN-LIST_UPD_FREQ;CA-7(3),RA-5(1)
SW_UPDATE_CHECK_FREQ;CA-7,RA-5
AUDIT_RECORD_FREQ;AU-1,AU-2,AU-3,AU-6
K_ANONIMITY_ON;DM-1,DM-3
L_DIVERSITY_ON;DM-1,DM-3
T_CLOSENESS_ON;DM-1,DM-3
CONFID_LEVEL;IA-3,IA-7,SC-8,SC-9,SC-12,SC-13,AC-17(2),AU-13,SC-23
KEY_EXPOSURE_LEVEL;SC-12,SC-13
ACC_TRAINING_LEVEL;AT-4
DATA_IS_TESTING_LEVEL;CA-2
CONSENT_TYPE;IP-1,AU-13
NOTICE_TYPE;TR-1
DATA_SUBJ_ACCESS_PROCEDURES;IP-2
PRI_NOTICE_READABILITY;IP-1
PRI_RESP_LEVEL;AR-1
LOG_INTEGRITY_LEVEL;AU-9
AUTHENTICATION_LEVEL;AC-1,AC-2,AC-3,SC-23
INCIDENT_NOTIF_QUALITY;SI-4
CRYPTO_S;SC-13
LOR;CP-2,SC-5,SC-36
LOD;CP-2,SC-5,SC-29
MTB_INCIDENTS;SI-4,IR-5
MTT_REVOKE_USERS;AC-3(8)
MTT_RESPOND_COMPLAINTS;IP-4
MTT_REACT;IR-1,IR-4
MTT_CRITICAL_PATCH;SI-2
MTT_DETECT_INCIDENT;SI-4,IR-5
MTT_RECOVER;IR-4,IR-8
MTT_PATCH;SI-2
MTT_COMPLETE_CHANGES;CM-3
MTT_CONTAINMENT;IR-4
PRI_PROG_UPDTS;AR-1
PERIODIC_PRI_ASSESSMENTS;AR-2
CERTIFICATIONS;AR-5
RCVD_PRIV_AUDITS;AU-2
DATA_SUBJ_ACCESS_RQSTS;IP-2
COMPLAINTS_NUMB;IP-4
PRI_INCIDENT_NUMB;Si-4
3RD-PARTY_PRI_INCIDENTS_NUMB;SI-4
DAMAGE_INCIDENTS;SI-4,IR-4,IR-5
INCIDENTS;SI-4,IR-4,IR-5
VULNERABILITIES;RA-5
TESTED_BCR_PLANS;CP-4
SANCTIONS;SI-5
DATA_ENCRYPTION_PERC;SC-8,SC-28
DATE_INDICATION_PERC;AP-1,IP-1,DM-2,AU-3
DATA_CLASSIFICATION_PERC;SE-1
PII_AUTHORIZ_PERC;AP-1,IP-1
PRI_BUDGET_PERC;AR-1
PRI_TRAINING_PERC;AR-5
NOTIFIED_PRI_INCIDENTS_PERC;SI-4,IR-6
MITIGATED_HIGH_VULNS_PERC;RA-5
REMOTE_ACCESSES_PERC;AC-17
SHARED_ACCOUNTS_PERC;AC-2,AC-3,IA-2
REPORTED_INTIME_INCID_PERC;SI-4,IR-6
REMEDIATED_INTIME_VULNS_PERC;RA-5,CA-5
MITIGATED_OS_VULNS_PERC;SI-2
VULN_SCANNED_SYSTEMS_PERC;RA-5
RCVD_AUDITS_PERC;CA-2(1)
DATA_SUBJ_ACCESS_RPLYS_PERC;IP-2
RESP_CERTIFICATION_PERC;AR-5
REVIEWED_COMPLAINTS_PERC;IP-4
CONF_CHANGES_PERC;CM-2,CM-3
CONTINGENCY_PLAN_TESTED_SYSTEMS_PERC;CP-4
MANTAINED_SYSTEMS_PERC;MA-2,MA-6
SANITIZED_MEDIA_PERC;MP-6
PHY_INCIDENTS_PERC;SI-4,PE-6
INTIME_SOLVED_INCIDENTS_PERC;SI-4,IR-4,IR-5
AUTHORIZED_USERS_PERC;PL-4,AC-2
PERSONNEL_SCREENING_PERC;AC-2,PS-3
SECURITY_CONTRACTS_PERC;SA-4
DEVICE_PROTECTION_PERC;SC-13
LAST_RQST_LOC;SI-4(4),SI-4(24),AC-2(12),AU-3,AU-14(2),AC-4(1),AC-2(13)
MOST_FREQ_RQST_LOC;SI-4(4),SI-4(24),AC-2(12),AU-3,AU-14(2),AC-4(1),AC-2(13)
MTPD;CP-10
APP_RSP_TIME;AC-24,SI-4(7)
SERVICE_DISRUPT;SI-4,SI-4(4),SI-4(24),CA-7,AC-2(12),AU-3
ACC_CONTR_CORRECT;AC-1,AC-3,AC-7
ACC_CONTR_LOGGING;AU-1,AU-2,AC-7
USR_AUTH_BEHAV_CHG;AC-9(4),AC-9,AC-7
SEC_INCIDENT;IR-5,IR-5(1),CA-7,SI-4
SRC_REQ_LOCATION;AC-17
DST_LOCATION_EXCHANGED_DATA;AC-17
CPU_USAGE;CA-7,SC-5(3)
MEM_USAGE;CA-7,SC-5(3)
DISK_USAGE;CA-7,SC-5(3)
BEHAV_CHG;SI-4,CA-7