DATA_AV;Data availability;AV;Data protection;Percentage of time in which data access is available to data owners;Output=uptime / (uptime+downtime);0 <= integer <= 100;%;;n/a;ge (<=);EU H2020 MUSA;;
SERVICE_AV;Service availability;AV;SW component/system protection;Percentage of time in which service access is available to users;;0 <= integer <= 100;%;;n/a;ge (<=);EU H2020 MUSA;;
COMPENSATORY_COST;Total expenses due to compensatory damages;COST;management;This metric indicates the total expenses incurred due to compensatory damages.;E_i: Expenses due to compensatory damage associated to incident i (expressed in a given currency, such as Euros) N: Total number of incidents that incurred in damagesOutput = Sum1_N(E_i);integer > 0;euros;;n/a;leq(<=);EU FP7 A4Cloud;;
AVG_COMPENSATORY_COST;Average expenses due to compensatory damages;COST;management;This metric indicates the average expenses due to compensatory damages per upheld complaint/incident;E_i: Expenses due to compensatory damage associated to incident i (expressed in a given currency, such as Euros) N Total number of incidents that incurred in damagesOutput = (1/N)* Sum1_N(E_i);integer > 0;euros;;n/a;leq(<=);EU FP7 A4Cloud;;
INCIDENTS_COST;Cost of Incidents;COST;management;This metric measures the total cost to the organization from security incidents occurring during the metric time period.;COI = SUM(Direct Loss + Cost of Business System Downtime + Cost of Containment + Cost of Recovery + Cost of Restitution);integer > 0;euros ;;n/a;leq(<=);The Center for Internet Security;;
AVG_INCIDENT_COST;Mean Cost of Incidence;COST;management;This metric measures the mean cost to the organization from security incidents identified relative to the number of incidents that occurred during the metric time period.; Output = SUM(Direct Loss + Cost of Business System Downtime + Cost of Containment + Cost of Recovery + Cost of Restitution) /Count(incidents);integer > 0;euros per incident;;n/a;leq(<=);The Center for Internet Security;;
AVG_INCIDENT_RECOV_COST;Mean Incident Recovery Cost;COST;management;This metric measures the cost of returning business systems to their pre-incident condition.; Output = SUM(recovery costs) / Count(incidents);integer > 0;euros per incident;;n/a;leq(<=);The Center for Internet Security;;
AVG_PATCH_COST;Mean Cost to Patch;COST;management;The goal of this metric is to understand the effort required for patch management activities.; Output = SUM(patch costs) / Count(deployed patches);integer > 0;euros per patch;;n/a;leq(<=);The Center for Internet Security;;
INFR_DATA_LOCATION;Datacenter Location;DL;Data protection;This metric defines the geolocation of the datacenter  infrastrucure for governance and compliance purposes;;geographical zone;n/a;;;eq (=);EU H2020 MUSA;;
RES_UTILIZATION_EFF;Resource Utilization Efficiency;EFF;SW component/system protection;It measures the efficiency of cloud resources allocated to application, to determine the utilisation;Output=(used resources/ total resources)*100;0 <= integer <= 100;%;;n/a;ge(>=);EU H2020 MUSA;;
DATA_WS_ON;Write-Serializability Activation;FA;Data protection;This metric ensures the EU that any WS violation to his stored data will be detected in a defined period of time (detection periods are less than 2*epoch). In case of WS violations, the EU will be notified, and the system will be restored to the state of the last finished epoch.;;yes / no;n/a;;yes;eq (=);EU FP7 SPECS;;
DATA_RF_ON;Read-Freshness Activation;FA;Data protection;This metric ensures the EU that any RF violation to his stored data will be detected in a defined period of time (detection periods are less than 2*epoch). In case of RF violations, the EU will be notified, and the system will be restored to the state of the last finished epoch.;;yes / no;n/a;;yes;eq (=);EU FP7 SPECS;;
FWSEC_ON;Forward Secrecy Activation;FA;Communication protection;This metric ensures that the encrypted data sent through a session of the TLS secure channel cannot be decrypted even if the cryptographic data, used to generate the cryptographic credentials for that session, are compromised.;;yes / no;n/a;;yes;eq (=);EU FP7 SPECS;;
HSTS_ON;HTTP Strict Transport Security Activation;FA;Communication protection;This metric enables the feature of the HTTP transport layer that declares the web content available only over a secure HTTP connection.;;yes / no;n/a;;yes;eq (=);EU FP7 SPECS;;
HTTPS_ON;HTTP to HTTPS Redirect Activation;FA;Communication protection;This metric enables the feature of the HTTP delivery service that forces clients to use only secure HTTP protocol.;;yes / no;n/a;;yes;eq (=);EU FP7 SPECS;;
SEC_COOKIES_ON;Secure Cookies Enforcement;FA;Communication protection;This metric enables the feature of the HTTP protocol that forces the clients to download session cookies, delivered by the HTTP services, only through a secured HTTP communication;;yes / no;n/a;;yes;eq (=);EU FP7 SPECS;;
CERT_PIN_ON;Certificate Pinning Activation;FA;Communication protection;This metric enables the feature of the HTTP protocol allowing the verification of the SSL certificates between the client and the HTTP service where the hash of the public certificate is pinned into the HTTP response.;;yes / no;n/a;;no;eq (=);EU FP7 SPECS;;
VULN_SCAN_FREQ;Vulnerability Scanning Frequency;FOP;SW component/system protection;It represents the frequency of software vulnerability scanning. ;;integer > 0;hours;;24;eq (=);EU FP7 SPECS;;
VULN-LIST_UPD_FREQ;Vulnerability-List Update Frequency;FOP;SW component/system protection;It represents the vulnerability list update frequency (from an available repository such as OVAL/NDV);;integer > 0;hours;;24;eq (=);EU FP7 SPECS;;
SW_UPDATE_CHECK_FREQ;SW Update Check Frequency;FOP;SW component/system protection;This metric sets the frequency of checks for updates and upgrades of vulnerable installed libraries. ;;integer > 0;hours;;24;eq (=);EU FP7 SPECS;;
AUDIT_RECORD_FREQ;Audit Record Generation Frequency;FOP;SW component/system protection;It measures the average frequency of audit records review and analysis for inappropriate activity .;Average frequency during reporting period ;integer > 0;days;;n/a;ge (>=);NIST SP800-55 v1 (from Audit Record Review Measure);;
K_ANONIMITY_ON;k-anonimity;k-anonimity;Data protection;This metrics ensures that, given person-specific field-structured data, the individuals who are the subjects of the data cannot be re-identified while the data remain practically useful. Data is said to have the k-anonymity property if the information for each person contained in the release cannot be distinguished from at least k-1 individuals whose information also appear in the release.;;;;;;eq (=);http://www.worldscientific.com/doi/abs/10.1142/S0218488502001648;;
L_DIVERSITY_ON;l-diversity;l-diversity;Data protection;This metric ensures l-diversity, which is a form of group based anonymization that is used to preserve privacy in data sets by reducing the granularity of a data representation. This reduction is a trade off that results in some loss of effectiveness of data management or mining algorithms in order to gain some privacy. The l-diversity model is an extension of the k-anonymity model which reduces the granularity of data representation using techniques including generalization and suppression such that any given record maps onto at least k other records in the data.;;;;;;eq (=);http://dl.acm.org/citation.cfm?doid=1217299.1217302;;
T_CLOSENESS_ON;t-closeness;t-closeness;Data protection;This metric ensures the t-closeness feature, which is a further refinement of l-diversity group based anonymization that is used to preserve privacy in data sets by reducing the granularity of a data representation. This reduction is a trade off that results in some loss of effectiveness of data management or mining algorithms in order to gain some privacy. The t-closeness model extends the l-diversity model by treating the values of an attribute distinctly by taking into account the distribution of data values for that attribute.;;;;;;eq (=);http://ieeexplore.ieee.org/xpl/articleDetails.jsp?arnumber=4221659;;
CONFID_LEVEL;Level of confidentiality;LOC;Data protection;This metric indicates the level of confidentiality achieved by a system regarding client data independently of the means used to achieve this objective.;;0 <= integer <= 4;(level);Level 0 <= Data confidentiality does not satisfy any of the next levels. Level 1 <= Data may be accessible by the cloud provider personnel for regular operational purposes, under the control of an authentication, authorization and accounting (AAA) mechanism. Level 2 <= Technical and organizational measures are in place so that data may only be  accessible to privileged CSP personnel (administrators) for debugging or maintenance  purposes, under the control of an AAA  mechanism. Level 3 <= Technical and organizational measures are in place so that data is only accessible to privileged CSP personnel to respond to law enforcement or extraordinary requests made by the client, under the control of an AAA mechanism. Level 4 <= Data is encrypted by the client with cryptographic keys that cannot be ascertained by the provider.;0;ge (>=);EU FP7 A4Cloud;;
KEY_EXPOSURE_LEVEL;Key Exposure Level;LOC;Data protection;This metric indicator of key exposure to reflect the level of confidentiality afforded to cryptographic secrets, from a cloud client point of view.;;0 <= integer <= 4;(level);Level 0 <= Access to decrypted data or cryptographic secrets by the CSP is necessary to provide some functionalities of the service. Level 1 <= Access to decrypted data or cryptographic secrets is available to specific personnel of the CSP, for administrative or debugging purposes only. Level 2 <= Access to decrypted data or cryptographic secrets is available to specific personnel  of the CSP, for administrative or debugging purposes only. It is governed by the principle of dual control and split knowledge. Level 3 <= Access to decrypted data or cryptographic secrets is available to specific personnel of the CSP in exceptional circumstances only. It is governed by the principle of dual control and split knowledge, under the supervision of a hardware security module. Level 4 <= Cryptographic secrets needed to decrypt the data are known to the cloud client only.;n/a;le (<=);EU FP7 A4Cloud;;
ACC_TRAINING_LEVEL;Account of Privacy and Security Training;LOC;management;This metric describes the quality of the accounts given with respect to the privacy training and awareness programs in place.;;0 <= integer <= 4;(level);Level 0 <= No records of training are maintained. Level 1 <= Records of training sessions are maintained, but there is no evidence of individual attendance. Level 2 <= Individual records of attendance are maintained. Level 3 <= Individual evaluation of the training contents is performed and recorded. Level 4 <= The training program includes automated procedures for recording attendance as well as for evaluating personnel individually.;n/a;ge (>=);EU FP7 A4Cloud;;
DATA_IS_TESTING_LEVEL;Data Isolation Testing Level;LOC;Data protection, management;This metric describes the level of testing that has been done by the cloud provider to assess how well data isolation is implemented.;;0 <= integer <= 3;(level);Level 0 <= No data isolation testing has been performed. Level 1 <= Read/write isolation has been tested. Level 2 <= Secure deletion has been tested, in addition to read/write isolation. Level 3 <= Absence of known side channel attacks has been tested, in addition to read/write and secure deletion.;n/a;ge (>=);EU FP7 A4Cloud;;
CONSENT_TYPE;Type of Consent;LOC;Data protection, management;This metric describes the type of consent obtained for collecting, using and sharing private data. The type of consent can be ranked in levels according to its preference.;;0 <= integer <= 3;(level);Level 0 <= No Consent: Consent is not obtained at or before collection of private data. Level 1 <= Implied Consent: The consent is infered from the behaviour of the data subject, or  even from failing to explicitly object. No opt-out or opt-in mechanisms are offered. Level 2 <= Opt-out Consent: Data subjects can take measures for prevent the collection of private data, but no opt-in mechanisms are offered. Level 3 <= Opt-in Consent: Data subjects explicitly grant permission for collecting or using private data.;n/a;ge (>=);EU FP7 A4Cloud;;
NOTICE_TYPE;Type of notice;LOC;Data protection, management;This metric describes the type of privacy notice provided by the collecting organization, depending on how the privacy notice is offered to the data subjects. Ideally, multi-layer notice should be provided so data subjects have the information necessary to make decisions at any point in time.;;0 <= integer <= 2;(level);Level 1 <= Single notice: The organization provides only a single document describing the  privacy notice. Level 2 <= Multi-layer notice: The organization provides different layers of notices. Each layer  can present different degrees of information, as long as the union of all the layers is compliant  with applicable privacy regulations.;n/a;ge (>=);EU FP7 A4Cloud;;
DATA_SUBJ_ACCESS_PROCEDURES;Procedures for Data Subject Access Requests;LOC;Data protection, management;This metric describes the quality of the procedures in place for guaranteeing data subjects<= access to their personal information.;;0 <= integer <= 3;(level);Level 0 - No procedures are established for permitting data subject access to their personal information.Level 1 - Procedures for data subject access exist but are not documented or consistent.Level 2 - Documented and consistent processes for data subject access are established. Employees responsible of such procedures are identified and trained on how to respond to requests. There also exist procedures for handling with denial of access.Level 3 - Automated and self-service procedures for data subject access are in place, including the case of denied access.;n/a;ge (>=);EU FP7 A4Cloud;;
PRI_NOTICE_READABILITY;Readability (Flesch Reading Ease Test);LOC;management;This metric describes quantitatively the level of readibility of a given text, computed fromthe number of sentences, words and syllables. This is of interest for assessing readibility of privacynotices and notifications, which should be written in a clear and concise way. This metric is known asthe Flesch Reading Ease Test, and is widely utilized for evaluating readibility.;S: Total number of sentences in the textW: Total number of words in the textY: Total number of syllables in the textOutput = 206.835 _ 1.015 <= W/S _ 84.6 <= Y/W;integer > 0;(readibility);;n/a;ge (>=);EU FP7 A4Cloud;;
PRI_RESP_LEVEL;Rank of Responsibility for Privacy;LOC;management;This metric describes numerically at what level within the organization hierarchy theperson responsible for privacy is located.;N: Number of superiors of the person responsible for privacy in the organization's hierarchyOutput = N;integer > 0;(person);;n/a;eq (=);EU FP7 A4Cloud;;
LOG_INTEGRITY_LEVEL;Log Unalterability;LOC;SW component/system protection;This metric describes the level of protection of the log management systems againsttampering.;;0 <= integer <= 2;(level);Level 0 <= No integrity mechanisms are in placeLevel 1 <= Log integrity is protected only by access control measures.Level 2 <= Cryptographic mechanisms are in place for guaranteeing log unalterability or WORM  (Write Once Read Many) devices are used.;n/a;ge (>=);EU FP7 A4Cloud;;
AUTHENTICATION_LEVEL;Identity Assurance;LOC;SW component/system protection;This metric describes the quality of the authentication mechanisms in place.;;0 <= integer <= 4;level);Level 0 <= No authentication mechanisms are in place.Level 1 <= Simple challenge response mechanisms are allowed and no identity proofing is required.Level 2 <= Single factor remote network authentication is required; in this case, authentication is successful if the claimant proves control of the authentication token through a secure authentication protocol.Level 3 <= Multifactor authentication mechanisms are in place. Proofs of control of the authentication token are done through a cryptographic protocol.Level 4 - Multifactor authentication with a hardware cryptographic token is required. Strong cryptographic mechanisms are required along physical tokens with a FIPS 140-2 level greater than 2, and identity proofing is done in person.;n/a;ge (>=);EU FP7 A4Cloud;
INCIDENT_NOTIF_QUALITY;Type of incident notification;LOC;management;This metric describes the quality of the notification procedures after a privacy incident or breach.;;0 <= integer <= 3;(level);Level 0 <= No notification of privacy incidents is done, or it is done inconsistently.Level 1 <= General notification, usually as a public notice. Affected users may not be aware of the incidentLevel 2 <= Individual notification to each affected user.Level 3 <= Automated and self-service procedures for data subject access are in place, including the case of denied access.;n/a;ge (>=);EU FP7 A4Cloud;;
CRYPTO_S;Cryptographic Strength;LOC;Data protection, Communication protection;It is a measure of the strength of a cryptosystem in terms of the expected number of operations required to defeat the underlying cryptographic mechanism. The values (level 1-8) are based on ECRYPT II recommendations 2012 . https://www.keylength.com/en/3/ ;;1 <= integer <= 8;(level);LEVEL1: Attacks in real-time by individuals. Only acceptable for authentication tag size.LEVEL2: Very short-term protection against small organizations. Should not be used for confidentiality in new systems.LEVEL3: Short-term protection against medium organizations, medium-term protection against small organizations.LEVEL4: Very short-term protection against agencies, long-term protection against small organizations.LEVEL5: Legacy standard level.LEVEL6: Medium-term protection.LEVEL7: Long-term protection.LEVEL8: Foreseeable future.;7;eq (=);EU FP7 SPECS;;
LOR;Level of Redundancy;LOC;SW component/system protection;It represents the number of replicas of a software component that are set-up and kept active at the same time during system operation;;integer > 0;n/a;;1;ge (<=);EU FP7 SPECS;;
LOD;Level of Diversity;LOC;SW component/system protection;It represents the number of different software / hardware replicas of a software component that are set-up and kept active at the same time during system operation;;integer > 0;n/a;;1;ge (<=);EU FP7 SPECS;;
MTB_INCIDENTS;Mean time between incidents;MTBE;SW component/system protection, data protection, communication protection;This metrics measures the mean time between two subsequent incidents;;;;;;;EU FP7 Cumulus;;
MTT_REVOKE_USERS;Mean time to revoke users;MTTC;SW component/system protection, data protection, communication protection, management;This attribute describes quantitatively how fast an organization revokes users<= access to data and organizationally-owned or managed (physical and virtual) applications, infrastructure systems, and network components, based on user's change in status (e.g., termination of employment or other business relationship, job change or transfer).;T_i: Revocation time for user i (expressed in a given time unit, such as hours) N: Total number of user revocation, for a given period of timeOutput = (1/N) *SUM(T_i);integer > 0;hours;;n/a;le (<=);EU FP7 A4Cloud;;
MTT_RESPOND_COMPLAINTS;Mean time to respond to complaints;MTTC;SW component/system protection, data protection, communication protection, management;This metric indicates the average time that the organization takes for responding tocomplaints from stakeholders.;T_i: Response time for complaint iN: Total number of complaintsOutput = (1/N) *SUM(T_i);integer > 0;hours;;n/a;le (<=);EU FP7 A4Cloud;;
MTT_REACT;Timeliness of reaction;MTTC;SW component/system protection, data protection, communication protection;This metric indicates the average time to react to a security incident;;integer > 0;seconds;;n/a;le (<=);EU H2020 MUSA;;
MTT_CRITICAL_PATCH;Mean Time to Deploy Critical Patches;MTTC;SW component/system protection;The metric measures the average time taken to deploy a critical patch to the organization<=s technologies;SUM(Date_of_Installation - Date_of_Notification )/Count(Completed_Critical_Patches );integer > 0;seconds;;n/a;le (<=);The Center for Internet Security;;
MTT_DETECT_INCIDENT;Mean Time to Incident Discovery;MTTC;SW component/system protection, data protection, communication protection;This metric measures the effectiveness of the organization in detecting security incidents, as it returns the average time to detect incidents;SUM(Date_of_Discovery - Date_of_Occurrence)/Count(Incidents);integer > 0;seconds;;n/a;le (<=);The Center for Internet Security;;
MTT_RECOVER;Mean Time to Incident Recovery;MTTC;SW component/system protection, data protection, communication protection;This metric measures the effectiveness of the organization to recovery from security incidents;SUM(Date_of_Recovery - Date_of_Occurrence)/ Count(Incidents);integer > 0;seconds;;n/a;le (<=);The Center for Internet Security;;
MTT_PATCH;Mean Time to Patch;MTTC;SW component/system protection;This metric measures the average time taken to deploy a patch to the organization<=s technologies;SUM(Date_of_Installation - Date_of_Availability )/ Count(Completed_Patches );integer > 0;seconds;;n/a;le (<=);The Center for Internet Security;;
MTT_COMPLETE_CHANGES;Mean Time to Complete Changes;MTTC;SW component/system protection;The average time it takes to complete a configuration change request.;Sum(Completion_Date - Submission_Date)/ Count(Completed_Changes);integer > 0;seconds;;n/a;le (<=);The Center for Internet Security;;
MTT_CONTAINMENT;Mean Time from Discovery to Containment;MTTC;SW component/system protection;It measures the effectiveness of the organization to identify and contain security incidents.;SUM(Date_of_Containment - Date_of_Discovery)/ Count(Incidents);integer > 0;seconds;;n/a;le (<=);The Center for Internet Security;;
PRI_PROG_UPDTS;Privacy Program Updates;NOE;management;This metric describes the frequency of updates to the privacy program, policies and procedures by a competent role (e.g. Data Protection Officer (DPO)).;N: Number of scheduled updates to the privacy program, per yearOutput = N;integer > 0;(updates);;n/a;ge (>=);EU FP7 A4Cloud;;
PERIODIC_PRI_ASSESSMENTS;Periodicity of Privacy Impact Assessments for Information Systems;NOE;management;This metric describes the periodicity of Privacy Impact Assessments for Information Systems;N: Number of scheduled Privacy Impact Assessments, per yearOutput = N;integer > 0;(assessments);;n/a;ge (>=);EU FP7 A4Cloud;;
CERTIFICATIONS;Frequency of certifications;NOE;Data protection, management;This metric describes how often employees certify their acceptance of responsibilities for activities that involve handling of private data.;N: Number of scheduled certifications of acceptance, per yearOutput = N;integer > 0;(certifications);;n/a;ge (>=);EU FP7 A4Cloud;;
RCVD_PRIV_AUDITS;Number of privacy audits received;NOE;SW component/system protection, management;This metric describes the number of independent reviews and assessments performed to the privacy program, policies and procedures in place.;;integer > 0;n/a;;n/a;ge (>=);EU FP7 A4Cloud;;
DATA_SUBJ_ACCESS_RQSTS;Number of Data Subject Access Requests;NOE;Data protection;This metric describes the number of data subject access requests received during a given period of time.;N: Number of data subject access requests received during a given period of timeOutput = N;integer > 0;(access requests);;n/a;le (<=);EU FP7 A4Cloud;;
COMPLAINTS_NUMB;Number of complaints;NOE;management;This metric indicates the number of complaints received during a given period of time.;N: Number of complaints received during a given period of timeOutput = N;integer > 0;(complaints);;n/a;eq (=);EU FP7 A4Cloud;;
PRI_INCIDENT_NUMB;Number of privacy incidents;NOE;management;This metric provides the number of privacy incidents and breaches that have occurred in a given period of time.;N Number of privacy incidents and breaches over a given periodOutput = N;integer > 0;(incidents);;n/a;le (<=);EU FP7 A4Cloud;;
3RD-PARTY_PRI_INCIDENTS_NUMB;Privacy incidents caused by third parties;NOE;management;This metric indicates the number of privacy incidents caused by a third party to whom personal information was transferred (i.e. Data Processors);N: Number of privacy incidents and breaches over a given period caused by a third party processorOutput = N;integer > 0;(incidents);;n/a;le (<=);EU FP7 A4Cloud;;
DAMAGE_INCIDENTS;Incidents with damages;NOE;management;This metric indicates the number of incidents that end up with compensatory or punitive damages.;N: Number of incidents that end up with compensatory or punitive damages, in a given period of timeOutput = N;integer > 0;(incidents);;n/a;ge (>=);EU FP7 A4Cloud;;
INCIDENTS;Number of Incidents;NOE;SW component/system protection, management;It indicates the number of detected security incidents the organization has experiencedduring the metric time period. In combination with other metrics, this can indicate the level of threats, effectiveness of security controls, or incident detection capabilities;NI = Count(Incidents);integer >= 0;n/a;;n/a;le (<=);The Center for Internet Security;;
VULNERABILITIES;Number of Vulnerabilities;NOE;SW component/system protection, management;It is the number of known vulnerabilities that have been found on organization<=s systems during the vulnerability identification process (per catergory or severity);;integer >= 0;n/a;;n/a;le (<=);The Center for Internet Security;;
TESTED_BCR_PLANS;Number of Business Continuity Resilience (BCR) plans tested;NOE;management;This metric indicates the number of business continuity resilience and incident response plans that have been tested in a given interval of time.;N: Number of BCR plans tests in a given period of timeOutput = N;integer > 0;(plans);;n/a;le (<=);EU FP7 A4Cloud;;
SANCTIONS;Sanctions;NOE;management;This metric indicates the number and type of sanctions that the organization has received. The EU DPD defines different types of sanctions: (i) a notice addressed to the Data controller (e.g. for compulsory audit), (ii) a fine, (iii) an injunction dictating the end of processing operations, and (iv) a (temporary or permanent) revocation of the authorization allowing the processing of personal data.;N1: Number of sanctions received in the form of notices N2: Number of sanctions received in the form of fines N3: Number of sanctions received in the form of injuctions N4: Number of sanctions received in the form of revocationsOutput = (N1, N2, N3, N4);integer > 0;(sanctions);;n/a;eq (=);EU FP7 A4Cloud;;
DATA_ENCRYPTION_PERC;Data encryption percentage;PERC;data protection;The metric represents  the percentage of encrypted stored data in the cloud infrastructure.;;0 <= integer <= 100;%;;yes;eq (=);EU H2020 MUSA;;
DATE_INDICATION_PERC;Record of Data Collection, Creation, and Update;PERC;Data protection, management;This metric describes a percentage of the extent to which date is recorded when collecting, creating and updating private records. Date of data collection, creation and update is relevant for complying with data retention schedules.;N: Number of collected PII records for which the date is indicated T: Total number of collected PII recordsOutput = (N/T)*100;0 <= integer <= 100;%;;n/a;ge (>=);EU FP7 A4Cloud;;
DATA_CLASSIFICATION_PERC;Data classification;PERC;Data protection, management;This metric describes a percentage of the extent to which private data is identified and classified according to sensitivity and risk.;N: Number of collected PII records that have been classified, T:Total number of collected PII recordsOutput = (N/T)*100;0 <= integer <= 100;%;;n/a;ge (>=);EU FP7 A4Cloud;;
PII_AUTHORIZ_PERC;Authorized collection of PII;PERC;management;This metric describes the coverage of authorizations for collecting personally identifiable information PII).;A: Number of collected PII records for which authorization from the data subject exists T: Total number of collected PII recordsOutput = (A/T)*100;0 <= integer <= 100;%;;n/a;ge (>=);EU FP7 A4Cloud;;
PRI_BUDGET_PERC;Privacy Program Budget;PERC;management;This metric describes the percentage of the organization<=s IT budget that is allocated for establishing and maintaining a privacy program;B: Allocated budget to the privacy program T:Total budgetOutput = (B/T)*100;0 <= integer <= 100;%;;n/a;ge (>=);EU FP7 A4Cloud;;
PRI_TRAINING_PERC;Coverage of Privacy and Security Training;PERC;management;This metric describes the percentage of relevant employees who have received training on the privacy program and policies in place. The definition of relevant employee could vary (e.g., those that handle private data);N: Number of relevant employees T: Number of employees who have received trainingOutput = (T/N)*100;0 <= integer <= 100;%;;n/a;le (<=);EU FP7 A4Cloud;;
NOTIFIED_PRI_INCIDENTS_PERC;Coverage of incident notifications;PERC;SW component/system protection, data protection, management;This metric provides the percentage of privacy incidents and breaches for which affected stakeholders were notified, for a given period of time.;N: Number of privacy incidents for which notification exists T: Total number of privacy incidents over a given periodOutput = (N/T)*100;0 <= integer <= 100;%;;n/a;ge (>=);EU FP7 A4Cloud;;
MITIGATED_HIGH_VULNS_PERC;Mitigated High Vulnerability Measure;PERC;SW component/system protection, management;It measures the percentage of the vulnerabilities ranked as HIGH in the NVD database that have been mitigated within organizationally defined time periods after discovery.;(Number of high vulnerabilities identified and mitigated within targeted time frame during the time period /number of high vulnerabilities identified within the time period) *100 ;0 <= integer <= 100;%;;n/a;ge (>=);NIST SP800-55 v1;;
REMOTE_ACCESSES_PERC;Remote Access Control Measure;PERC;SW component/system protection, management;It measures the percentage (%) of remote access points used to gain unauthorized access.;(Number of remote access points used to gain unauthorized access/total number of remote access points) *100 ;0 <= integer <= 100;%;;n/a;le (<=);NIST SP800-55 v1;;
SHARED_ACCOUNTS_PERC;User Accounts Measure;PERC;SW component/system protection, management;It measures the percentage (%) of users with access to shared accounts.;(Number of users with access to shared accounts/total number of users) *100 ;0 <= integer <= 100;%;;n/a;le (<=);NIST SP800-55 v1;;
REPORTED_INTIME_INCID_PERC;Incident Response Measure ;PERC;SW component/system protection, management;It measures the percentage (%) of incidents reported within required time frame per applicable incident category.;For each incident category (number of incidents reported on time/total number of reported incidents) *100 ;0 <= integer <= 100;%;;n/a;ge (>=);NIST SP800-55 v1;;
REMEDIATED_INTIME_VULNS_PERC;Remediated Vulnerability Measure;PERC;SW component/system protection, management;It measures the percentage (%) of vulnerabilities remediated within organization-specified time frames.;(Number of vulnerabilities remediated according to POA&M schedule/total number of POA&M documented vulnerabilities identified through vulnerability scans) *100;0 <= integer <= 100;%;;n/a;ge (>=);NIST SP800-55 v1;;
MITIGATED_OS_VULNS_PERC;Mitigated OS Vulnerabilities;PERC;SW component/system protection, management;It measures the percentage (%) of operating system vulnerabilities for which patches have been applied or that have been otherwise mitigated (over total number of applicable vulnerabilities found through scans);(Number of vulnerabilities addressed in distributed alerts and advisories for which patches have been implemented, determined as non-applicable, or granted a waiver/total number of applicable vulnerabilities identified through alerts and advisories and through vulnerability scans) *100 ;0 <= integer <= 100;%;;n/a;ge (>=);NIST SP800-55 v1;;
VULN_SCANNED_SYSTEMS_PERC;Vulnerability Scanning Coverage;PERC;SW component/system protection, management;It measures the percentage of the organization<=s systems under management that were checked for vulnerabilities during vulnerability scanning and identification processes. This metric is used to indicate the scope of vulnerability identification efforts.;VSC=Count(Scanned_Systems)/ Count(All_Systems_Within_Organization ) *100;0 <= integer <= 100;%;;n/a;ge (>=);The Center for Internet Security;;
RCVD_AUDITS_PERC;Successful audits received;PERC;management;This metric describes the percentage of independent reviews and assessments performed to the policies and procedures in place for complying with applicable contractual and regulatory obligations.;S: Number of successful audits received A: Total number of audits receivedOutput = (S/A)*100;0 <= integer <= 100;%;;n/a;ge (>=);EU FP7 A4Cloud;;
DATA_SUBJ_ACCESS_RPLYS_PERC;Responded data subject access requests;PERC;Data protection;This metric describes the percentage of data subject access requests that have been responded and for which a record of the request and the response exists.;R: Number of responses to data subject access requests N: Number of data subject access requests received during a given period of timeOutput = (R/N)*100;0 <= integer <= 100;%;;n/a;ge (>=);EU FP7 A4Cloud;;
RESP_CERTIFICATION_PERC;Certification of acceptance of responsibility;PERC;management;This metric describes the percentage of employees who have certified their acceptance of responsibilities for activities that involve handling of private data.;N: Number of employees that are responsible of handling private data A: Number of employees who have effectively certified their responsibilityOutput = (A/N)*100;0 <= integer <= 100;%;;n/a;ge (>=);EU FP7 A4Cloud;;
REVIEWED_COMPLAINTS_PERC;Reviewed complaints;PERC;management;This metric indicates the percentage of complaints that have been reviewed during a given period of time.;R: Number of complaints that have been reviewed during a given period of time T: Total number of complaints received during a given period of timeOutput = (R/T)*100;0 <= integer <= 100;%;;n/a;le (<=);EU FP7 A4Cloud;;
CONF_CHANGES_PERC;Configuration Changes Measure ;PERC;management;It measures the percentage (%) approved and implemented configuration changes identified in the latest automated baseline configuration. ;(Number of approved and implemented configuration changes identified in the latest automated baseline configuration/total number of configuration changes identified through automated scans) *100 ;0 <= integer <= 100;%;;n/a;ge (>=);NIST SP800-55 v1;;
CONTINGENCY_PLAN_TESTED_SYSTEMS_PERC;Contingency Plan Testing Measure ;PERC;management;It measures the percentage (%) of information systems that have conducted annual contingency plan testing.;(Number of information systems that have conducted annual contingency plans testing/number of information systems in the system inventory) *100 ;0 <= integer <= 100;%;;n/a;ge (>=);NIST SP800-55 v1;;
MANTEINED_SYSTEMS_PERC;Maintenance Measure ;PERC;management;It measures the percentage (%) of system components that undergo maintenance in accordance with formal maintenance schedules.;(Number of system components that undergo maintenance according to formal maintenance schedules/total number of system components) *100 ;0 <= integer <= 100;%;;n/a;ge (>=);NIST SP800-55 v1;;
SANITIZED_MEDIA_PERC;Media Sanitization Measure ;PERC;management;It measures the percentage (%) of media that passes sanitization procedures testing for FIPS 199 highimpact systems.;(Number of media that passes sanitization procedures testing/total number of media tested) * 100 ;0 <= integer <= 100;%;;n/a;ge (>=);NIST SP800-55 v1;;
PHY_INCIDENTS_PERC;Physical Security Incidents Measure;PERC;management;It measures the percentage (%) of physical security incidents allowing unauthorized entry into facilities containing information systems.;(Number of physical security incidents allowing unauthorized entry into facilities containing information systems/total number of physical security incidents) *100 ;0 <= integer <= 100;%;;n/a;le (<=);NIST SP800-55 v1;;
INTIME_SOLVED_INCIDENTS_PERC;Percentage of timely incident resolutions;PERC;SW component/system protection, management;It measures the percentage (%) of security incidents that were solved in a given period of time;(Number of solved incidents in time t/total number of incidents detected in time t) *100 ;0 <= integer <= 100;%;;n/a;ge (>=);EU FP7 Cumulus;;
AUTHORIZED_USERS_PERC;Planning Measure;PERC;management;It measures the percentage of employees who are authorized access to information systems only after they sign an acknowledgement that they have read and understood rules of behavior.;(Number of users who are granted system access after signing rules of behavior/total number of users with system access) *100 ;0 <= integer <= 100;%;;n/a;ge (>=);NIST SP800-55 v1;;
PERSONNEL_SCREENING_PERC;Personnel Security Screening Measure;PERC;management;It measures the percentage (%) of individuals screened before being granted access to organizational information and information systems .;(Number of individuals screened/total number of individuals with access) *100 ;0 <= integer <= 100;%;;n/a;ge (>=);NIST SP800-55 v1;;
SECURITY_CONTRACTS_PERC;Service Acquisition Contract Measure;PERC;management;It measures the percentage (%) of system and service acquisition contracts that include security requirements and/or specifications.;(Number of system and service acquisition contracts that include security requirements and specifications/total number of system and service acquisition contracts) *100 ;0 <= integer <= 100;%;;n/a;ge (>=);NIST SP800-55 v1;;
DEVICE_PROTECTION_PERC;System and Communication Protection Measure;PERC;management;It measures the percentage of mobile computers and devices that perform all cryptographic operations using FIPS 140-2 validated cryptographic modules operating in approved modes of operation. Strategic Goal: Accelerate the development and use of an electronic information infrastructure.  Information Security Goal: Allocate sufficient resources to adequately protect electronic information infrastructure.;(Number of mobile computers and devices that perform all cryptographic operations using FIPS 140-2 validated cryptographic modules operating in approved modes of operation/total number of mobile computers and devices) *100 ;0 <= integer <= 100;%;;n/a;ge (>=);NIST SP800-55 v1;;
LAST_RQST_LOC;Most recent request location;RL;Data protection, SW component/system protection;The metric returns the last location source of the request made by a user to the cloud service;;geographical zone;n/a;;;eq (=);EU H2020 MUSA;;
MOST_FREQ_RQST_LOC;Most frequent request location;RL;Data protection, SW component/system protection;The metric returns the most frequency  location source of the request made by a user to the cloud service;;geographical zone;n/a;;;; ;;
MTPD;Maximum tolerable period for disruption (MTPD);TIME;management;This metric indicates the maximum tolerable period for disruption, as defined by the organizations<= BCR plans.;MTPD: Duration of the maximum tolerable period for disruption, expressed in a given time unit (e.g. minutes)Output = MTPD;integer > 0;minutes;;n/a;le (<=);EU FP7 A4Cloud;;
APP_RSP_TIME;Application response time;TIME;SW component/system protection;The average time (in milliseconds) to answer a specific request (can be categorized by request);;integer > 0;milliseconds;;1;le (<=);EU H2020 MUSA;;
SERVICE_DISRUPT;Service distruption;;SW component/system protection;Deviation from the normal use regarding different metrics (response time, nb of requests, nb of connected users etc.) at different day periods;;;;;;;EU H2020 MUSA;;