2.1;CUSTOM WEB APP
2.2;CUSTOM WEB APP
2.4;CUSTOM WEB APP
2.6;CUSTOM WEB APP
2.7;CUSTOM WEB APP
2.8;CUSTOM WEB APP
2.9;CUSTOM WEB APP
2.12;CUSTOM WEB APP
2.13;CUSTOM WEB APP
2.16;CUSTOM WEB APP
2.17;CUSTOM WEB APP
2.18;CUSTOM WEB APP
2.19;CUSTOM WEB APP
2.20;CUSTOM WEB APP
2.21;CUSTOM WEB APP
2.22;CUSTOM WEB APP
2.23;CUSTOM WEB APP
2.24;CUSTOM WEB APP
2.25;CUSTOM WEB APP
2.26;CUSTOM WEB APP
2.27;CUSTOM WEB APP
2.28;CUSTOM WEB APP
2.29;CUSTOM WEB APP
2.30;CUSTOM WEB APP
2.31;CUSTOM WEB APP
2.32;CUSTOM WEB APP
3.1;CUSTOM WEB APP
3.2;CUSTOM WEB APP
3.3;CUSTOM WEB APP
3.4;CUSTOM WEB APP
3.5;CUSTOM WEB APP
3.6;CUSTOM WEB APP
3.7;CUSTOM WEB APP
3.10;CUSTOM WEB APP
3.11;CUSTOM WEB APP
3.12;CUSTOM WEB APP
3.16;CUSTOM WEB APP
3.17;CUSTOM WEB APP
3.18;CUSTOM WEB APP
4.1;CUSTOM WEB APP
4.4;CUSTOM WEB APP
4.5;CUSTOM WEB APP
4.8;CUSTOM WEB APP
4.9;CUSTOM WEB APP
4.10;CUSTOM WEB APP
4.11;CUSTOM WEB APP
4.12;CUSTOM WEB APP
4.13;CUSTOM WEB APP
4.14;CUSTOM WEB APP
4.15;CUSTOM WEB APP
4.16;CUSTOM WEB APP
10.1;CUSTOM WEB APP
10.3;CUSTOM WEB APP
10.4;CUSTOM WEB APP
10.5;CUSTOM WEB APP
10.6;CUSTOM WEB APP
10.8;CUSTOM WEB APP
10.10;CUSTOM WEB APP
10.11;CUSTOM WEB APP
10.12;CUSTOM WEB APP
10.13;CUSTOM WEB APP
10.14;CUSTOM WEB APP
10.15;CUSTOM WEB APP
10.16;CUSTOM WEB APP
11.1;CUSTOM WEB APP
11.2;CUSTOM WEB APP
11.3;CUSTOM WEB APP
11.4;CUSTOM WEB APP
11.5;CUSTOM WEB APP
11.6;CUSTOM WEB APP
11.7;CUSTOM WEB APP
11.8;CUSTOM WEB APP